^D:\PROGRAMS_KODS\WYPOZYCZALNIAPAJEK — KOPIA\WYPOZYCZALNIAPAJEK\PERSON_INFO_GUI.CPP
D:\PROGRAMS_KODS\WYPOZYCZALNIAPAJEK — KOPIA\WYPOZYCZALNIAPAJEK\PERSON_INFO_GUI.H
D:\QT\QT5.14.2\5.14.2\MSVC2017_64\INCLUDE\QTWIDGETS\QWIDGET.H
D:\QT\QT5.14.2\5.14.2\MSVC2017_64\INCLUDE\QTWIDGETS\QTWIDGETSGLOBAL.H
D:\QT\QT5.14.2\5.14.2\MSVC2017_64\INCLUDE\QTGUI\QTGUIGLOBAL.H
D:\QT\QT5.14.2\5.14.2\MSVC2017_64\INCLUDE\QTCORE\QGLOBAL.H
D:\CPP\VC\TOOLS\MSVC\14.29.30133\INCLUDE\TYPE_TRAITS
D:\CPP\VC\TOOLS\MSVC\14.29.30133\INCLUDE\YVALS_CORE.H
D:\CPP\VC\TOOLS\MSVC\14.29.30133\INCLUDE\VCRUNTIME.H
D:\CPP\VC\TOOLS\MSVC\14.29.30133\INCLUDE\SAL.H
D:\CPP\VC\TOOLS\MSVC\14.29.30133\INCLUDE\CONCURRENCYSAL.H
D:\CPP\VC\TOOLS\MSVC\14.29.30133\INCLUDE\VADEFS.H
D:\CPP\VC\TOOLS\MSVC\14.29.30133\INCLUDE\XKEYCHECK.H
D:\CPP\VC\TOOLS\MSVC\14.29.30133\INCLUDE\CSTDINT
D:\CPP\VC\TOOLS\MSVC\14.29.30133\INCLUDE\STDINT.H
D:\CPP\VC\TOOLS\MSVC\14.29.30133\INCLUDE\XSTDDEF
D:\CPP\VC\TOOLS\MSVC\14.29.30133\INCLUDE\CSTDDEF
D:\WINDOWS KITS\10\INCLUDE\10.0.18362.0\UCRT\STDDEF.H
D:\WINDOWS KITS\10\INCLUDE\10.0.18362.0\UCRT\CORECRT.H
D:\CPP\VC\TOOLS\MSVC\14.29.30133\INCLUDE\XTR1COMMON
D:\CPP\VC\TOOLS\MSVC\14.29.30133\INCLUDE\CSTDLIB
D:\WINDOWS KITS\10\INCLUDE\10.0.18362.0\UCRT\MATH.H
D:\WINDOWS KITS\10\INCLUDE\10.0.18362.0\UCRT\CORECRT_MATH.H
D:\WINDOWS KITS\10\INCLUDE\10.0.18362.0\UCRT\STDLIB.H
D:\WINDOWS KITS\10\INCLUDE\10.0.18362.0\UCRT\CORECRT_MALLOC.H
D:\WINDOWS KITS\10\INCLUDE\10.0.18362.0\UCRT\CORECRT_SEARCH.H
D:\WINDOWS KITS\10\INCLUDE\10.0.18362.0\UCRT\CORECRT_WSTDLIB.H
D:\CPP\VC\TOOLS\MSVC\14.29.30133\INCLUDE\LIMITS.H
D:\CPP\VC\TOOLS\MSVC\14.29.30133\INCLUDE\INITIALIZER_LIST
D:\CPP\VC\TOOLS\MSVC\14.29.30133\INCLUDE\UTILITY
D:\WINDOWS KITS\10\INCLUDE\10.0.18362.0\UCRT\ASSERT.H
D:\QT\QT5.14.2\5.14.2\MSVC2017_64\INCLUDE\QTCORE\QCONFIG.H
D:\QT\QT5.14.2\5.14.2\MSVC2017_64\INCLUDE\QTCORE\QTCORE-CONFIG.H
D:\QT\QT5.14.2\5.14.2\MSVC2017_64\INCLUDE\QTCORE\QSYSTEMDETECTION.H
D:\QT\QT5.14.2\5.14.2\MSVC2017_64\INCLUDE\QTCORE\QPROCESSORDETECTION.H
D:\QT\QT5.14.2\5.14.2\MSVC2017_64\INCLUDE\QTCORE\QCOMPILERDETECTION.H
D:\CPP\VC\TOOLS\MSVC\14.29.30133\INCLUDE\ALGORITHM
D:\CPP\VC\TOOLS\MSVC\14.29.30133\INCLUDE\XMEMORY
D:\CPP\VC\TOOLS\MSVC\14.29.30133\INCLUDE\LIMITS
D:\CPP\VC\TOOLS\MSVC\14.29.30133\INCLUDE\CFLOAT
D:\WINDOWS KITS\10\INCLUDE\10.0.18362.0\UCRT\FLOAT.H
D:\CPP\VC\TOOLS\MSVC\14.29.30133\INCLUDE\CLIMITS
D:\CPP\VC\TOOLS\MSVC\14.29.30133\INCLUDE\CWCHAR
D:\CPP\VC\TOOLS\MSVC\14.29.30133\INCLUDE\CSTDIO
D:\WINDOWS KITS\10\INCLUDE\10.0.18362.0\UCRT\STDIO.H
D:\WINDOWS KITS\10\INCLUDE\10.0.18362.0\UCRT\CORECRT_WSTDIO.H
D:\WINDOWS KITS\10\INCLUDE\10.0.18362.0\UCRT\CORECRT_STDIO_CONFIG.H
D:\WINDOWS KITS\10\INCLUDE\10.0.18362.0\UCRT\WCHAR.H
D:\WINDOWS KITS\10\INCLUDE\10.0.18362.0\UCRT\CORECRT_MEMCPY_S.H
D:\WINDOWS KITS\10\INCLUDE\10.0.18362.0\UCRT\ERRNO.H
D:\CPP\VC\TOOLS\MSVC\14.29.30133\INCLUDE\VCRUNTIME_STRING.H
D:\WINDOWS KITS\10\INCLUDE\10.0.18362.0\UCRT\CORECRT_WCONIO.H
D:\WINDOWS KITS\10\INCLUDE\10.0.18362.0\UCRT\CORECRT_WCTYPE.H
D:\WINDOWS KITS\10\INCLUDE\10.0.18362.0\UCRT\CORECRT_WDIRECT.H
D:\WINDOWS KITS\10\INCLUDE\10.0.18362.0\UCRT\CORECRT_WIO.H
D:\WINDOWS KITS\10\INCLUDE\10.0.18362.0\UCRT\CORECRT_SHARE.H
D:\WINDOWS KITS\10\INCLUDE\10.0.18362.0\UCRT\CORECRT_WPROCESS.H
D:\WINDOWS KITS\10\INCLUDE\10.0.18362.0\UCRT\CORECRT_WSTRING.H
D:\WINDOWS KITS\10\INCLUDE\10.0.18362.0\UCRT\CORECRT_WTIME.H
D:\WINDOWS KITS\10\INCLUDE\10.0.18362.0\UCRT\SYS\STAT.H
D:\WINDOWS KITS\10\INCLUDE\10.0.18362.0\UCRT\SYS\TYPES.H
D:\CPP\VC\TOOLS\MSVC\14.29.30133\INCLUDE\INTRIN0.H
D:\CPP\VC\TOOLS\MSVC\14.29.30133\INCLUDE\INTRIN0.INL.H
D:\CPP\VC\TOOLS\MSVC\14.29.30133\INCLUDE\ISA_AVAILABILITY.H
D:\CPP\VC\TOOLS\MSVC\14.29.30133\INCLUDE\NEW
D:\CPP\VC\TOOLS\MSVC\14.29.30133\INCLUDE\EXCEPTION
D:\CPP\VC\TOOLS\MSVC\14.29.30133\INCLUDE\YVALS.H
D:\WINDOWS KITS\10\INCLUDE\10.0.18362.0\UCRT\CRTDBG.H
D:\CPP\VC\TOOLS\MSVC\14.29.30133\INCLUDE\VCRUNTIME_NEW_DEBUG.H
D:\CPP\VC\TOOLS\MSVC\14.29.30133\INCLUDE\VCRUNTIME_NEW.H
D:\CPP\VC\TOOLS\MSVC\14.29.30133\INCLUDE\CRTDEFS.H
D:\CPP\VC\TOOLS\MSVC\14.29.30133\INCLUDE\USE_ANSI.H
D:\WINDOWS KITS\10\INCLUDE\10.0.18362.0\UCRT\MALLOC.H
D:\CPP\VC\TOOLS\MSVC\14.29.30133\INCLUDE\VCRUNTIME_EXCEPTION.H
D:\CPP\VC\TOOLS\MSVC\14.29.30133\INCLUDE\EH.H
D:\WINDOWS KITS\10\INCLUDE\10.0.18362.0\UCRT\CORECRT_TERMINATE.H
D:\CPP\VC\TOOLS\MSVC\14.29.30133\INCLUDE\XATOMIC.H
D:\CPP\VC\TOOLS\MSVC\14.29.30133\INCLUDE\XUTILITY
D:\CPP\VC\TOOLS\MSVC\14.29.30133\INCLUDE\CSTRING
D:\WINDOWS KITS\10\INCLUDE\10.0.18362.0\UCRT\STRING.H
D:\WINDOWS KITS\10\INCLUDE\10.0.18362.0\UCRT\CORECRT_MEMORY.H
D:\QT\QT5.14.2\5.14.2\MSVC2017_64\INCLUDE\QTCORE\QTYPEINFO.H
D:\QT\QT5.14.2\5.14.2\MSVC2017_64\INCLUDE\QTCORE\QSYSINFO.H
D:\QT\QT5.14.2\5.14.2\MSVC2017_64\INCLUDE\QTCORE\QLOGGING.H
D:\QT\QT5.14.2\5.14.2\MSVC2017_64\INCLUDE\QTCORE\QFLAGS.H
D:\QT\QT5.14.2\5.14.2\MSVC2017_64\INCLUDE\QTCORE\QATOMIC.H
D:\QT\QT5.14.2\5.14.2\MSVC2017_64\INCLUDE\QTCORE\QBASICATOMIC.H
D:\QT\QT5.14.2\5.14.2\MSVC2017_64\INCLUDE\QTCORE\QATOMIC_CXX11.H
D:\QT\QT5.14.2\5.14.2\MSVC2017_64\INCLUDE\QTCORE\QGENERICATOMIC.H
D:\CPP\VC\TOOLS\MSVC\14.29.30133\INCLUDE\ATOMIC
D:\CPP\VC\TOOLS\MSVC\14.29.30133\INCLUDE\XTHREADS.H
D:\CPP\VC\TOOLS\MSVC\14.29.30133\INCLUDE\XTIMEC.H
D:\CPP\VC\TOOLS\MSVC\14.29.30133\INCLUDE\CTIME
D:\WINDOWS KITS\10\INCLUDE\10.0.18362.0\UCRT\TIME.H
D:\QT\QT5.14.2\5.14.2\MSVC2017_64\INCLUDE\QTCORE\QGLOBALSTATIC.H
D:\QT\QT5.14.2\5.14.2\MSVC2017_64\INCLUDE\QTCORE\QNUMERIC.H
D:\QT\QT5.14.2\5.14.2\MSVC2017_64\INCLUDE\QTCORE\QVERSIONTAGGING.H
D:\QT\QT5.14.2\5.14.2\MSVC2017_64\INCLUDE\QTGUI\QTGUI-CONFIG.H
D:\QT\QT5.14.2\5.14.2\MSVC2017_64\INCLUDE\QTWIDGETS\QTWIDGETS-CONFIG.H
D:\QT\QT5.14.2\5.14.2\MSVC2017_64\INCLUDE\QTGUI\QWINDOWDEFS.H
D:\QT\QT5.14.2\5.14.2\MSVC2017_64\INCLUDE\QTCORE\QOBJECTDEFS.H
D:\QT\QT5.14.2\5.14.2\MSVC2017_64\INCLUDE\QTCORE\QNAMESPACE.H
D:\QT\QT5.14.2\5.14.2\MSVC2017_64\INCLUDE\QTCORE\QOBJECTDEFS_IMPL.H
D:\QT\QT5.14.2\5.14.2\MSVC2017_64\INCLUDE\QTGUI\QWINDOWDEFS_WIN.H
D:\QT\QT5.14.2\5.14.2\MSVC2017_64\INCLUDE\QTCORE\QOBJECT.H
D:\QT\QT5.14.2\5.14.2\MSVC2017_64\INCLUDE\QTCORE\QSTRING.H
D:\QT\QT5.14.2\5.14.2\MSVC2017_64\INCLUDE\QTCORE\QCHAR.H
D:\QT\QT5.14.2\5.14.2\MSVC2017_64\INCLUDE\QTCORE\QBYTEARRAY.H
D:\QT\QT5.14.2\5.14.2\MSVC2017_64\INCLUDE\QTCORE\QREFCOUNT.H
D:\QT\QT5.14.2\5.14.2\MSVC2017_64\INCLUDE\QTCORE\QARRAYDATA.H
D:\CPP\VC\TOOLS\MSVC\14.29.30133\INCLUDE\STDARG.H
D:\CPP\VC\TOOLS\MSVC\14.29.30133\INCLUDE\STRING
D:\CPP\VC\TOOLS\MSVC\14.29.30133\INCLUDE\XSTRING
D:\CPP\VC\TOOLS\MSVC\14.29.30133\INCLUDE\IOSFWD
D:\CPP\VC\TOOLS\MSVC\14.29.30133\INCLUDE\CCTYPE
D:\WINDOWS KITS\10\INCLUDE\10.0.18362.0\UCRT\CTYPE.H
D:\CPP\VC\TOOLS\MSVC\14.29.30133\INCLUDE\ITERATOR
D:\QT\QT5.14.2\5.14.2\MSVC2017_64\INCLUDE\QTCORE\QSTRINGLITERAL.H
D:\QT\QT5.14.2\5.14.2\MSVC2017_64\INCLUDE\QTCORE\QSTRINGALGORITHMS.H
D:\QT\QT5.14.2\5.14.2\MSVC2017_64\INCLUDE\QTCORE\QSTRINGVIEW.H
D:\QT\QT5.14.2\5.14.2\MSVC2017_64\INCLUDE\QTCORE\QLIST.H
D:\QT\QT5.14.2\5.14.2\MSVC2017_64\INCLUDE\QTCORE\QALGORITHMS.H
D:\CPP\VC\TOOLS\MSVC\14.29.30133\INCLUDE\INTRIN.H
D:\CPP\VC\TOOLS\MSVC\14.29.30133\INCLUDE\SETJMP.H
D:\CPP\VC\TOOLS\MSVC\14.29.30133\INCLUDE\IMMINTRIN.H
D:\CPP\VC\TOOLS\MSVC\14.29.30133\INCLUDE\WMMINTRIN.H
D:\CPP\VC\TOOLS\MSVC\14.29.30133\INCLUDE\NMMINTRIN.H
D:\CPP\VC\TOOLS\MSVC\14.29.30133\INCLUDE\SMMINTRIN.H
D:\CPP\VC\TOOLS\MSVC\14.29.30133\INCLUDE\TMMINTRIN.H
D:\CPP\VC\TOOLS\MSVC\14.29.30133\INCLUDE\PMMINTRIN.H
D:\CPP\VC\TOOLS\MSVC\14.29.30133\INCLUDE\EMMINTRIN.H
D:\CPP\VC\TOOLS\MSVC\14.29.30133\INCLUDE\XMMINTRIN.H
D:\CPP\VC\TOOLS\MSVC\14.29.30133\INCLUDE\MMINTRIN.H
D:\CPP\VC\TOOLS\MSVC\14.29.30133\INCLUDE\ZMMINTRIN.H
D:\CPP\VC\TOOLS\MSVC\14.29.30133\INCLUDE\AMMINTRIN.H
D:\QT\QT5.14.2\5.14.2\MSVC2017_64\INCLUDE\QTCORE\QITERATOR.H
D:\QT\QT5.14.2\5.14.2\MSVC2017_64\INCLUDE\QTCORE\QHASHFUNCTIONS.H
D:\QT\QT5.14.2\5.14.2\MSVC2017_64\INCLUDE\QTCORE\QPAIR.H
D:\CPP\VC\TOOLS\MSVC\14.29.30133\INCLUDE\NUMERIC
D:\CPP\VC\TOOLS\MSVC\14.29.30133\INCLUDE\FUNCTIONAL
D:\CPP\VC\TOOLS\MSVC\14.29.30133\INCLUDE\TUPLE
D:\CPP\VC\TOOLS\MSVC\14.29.30133\INCLUDE\TYPEINFO
D:\CPP\VC\TOOLS\MSVC\14.29.30133\INCLUDE\VCRUNTIME_TYPEINFO.H
D:\QT\QT5.14.2\5.14.2\MSVC2017_64\INCLUDE\QTCORE\QVECTOR.H
D:\QT\QT5.14.2\5.14.2\MSVC2017_64\INCLUDE\QTCORE\QCONTAINERTOOLS_IMPL.H
D:\CPP\VC\TOOLS\MSVC\14.29.30133\INCLUDE\VECTOR
D:\QT\QT5.14.2\5.14.2\MSVC2017_64\INCLUDE\QTCORE\QPOINT.H
D:\CPP\VC\TOOLS\MSVC\14.29.30133\INCLUDE\LIST
D:\QT\QT5.14.2\5.14.2\MSVC2017_64\INCLUDE\QTCORE\QBYTEARRAYLIST.H
D:\QT\QT5.14.2\5.14.2\MSVC2017_64\INCLUDE\QTCORE\QSTRINGLIST.H
D:\QT\QT5.14.2\5.14.2\MSVC2017_64\INCLUDE\QTCORE\QREGEXP.H
D:\QT\QT5.14.2\5.14.2\MSVC2017_64\INCLUDE\QTCORE\QSTRINGMATCHER.H
D:\QT\QT5.14.2\5.14.2\MSVC2017_64\INCLUDE\QTCORE\QSCOPEDPOINTER.H
D:\QT\QT5.14.2\5.14.2\MSVC2017_64\INCLUDE\QTCORE\QMETATYPE.H
D:\QT\QT5.14.2\5.14.2\MSVC2017_64\INCLUDE\QTCORE\QVARLENGTHARRAY.H
D:\QT\QT5.14.2\5.14.2\MSVC2017_64\INCLUDE\QTCORE\QCONTAINERFWD.H
D:\CPP\VC\TOOLS\MSVC\14.29.30133\INCLUDE\MAP
D:\CPP\VC\TOOLS\MSVC\14.29.30133\INCLUDE\XTREE
D:\QT\QT5.14.2\5.14.2\MSVC2017_64\INCLUDE\QTCORE\QOBJECT_IMPL.H
D:\CPP\VC\TOOLS\MSVC\14.29.30133\INCLUDE\CHRONO
D:\CPP\VC\TOOLS\MSVC\14.29.30133\INCLUDE\__MSVC_CHRONO.HPP
D:\CPP\VC\TOOLS\MSVC\14.29.30133\INCLUDE\RATIO
D:\QT\QT5.14.2\5.14.2\MSVC2017_64\INCLUDE\QTCORE\QMARGINS.H
D:\QT\QT5.14.2\5.14.2\MSVC2017_64\INCLUDE\QTGUI\QPAINTDEVICE.H
D:\QT\QT5.14.2\5.14.2\MSVC2017_64\INCLUDE\QTCORE\QRECT.H
D:\QT\QT5.14.2\5.14.2\MSVC2017_64\INCLUDE\QTCORE\QSIZE.H
D:\QT\QT5.14.2\5.14.2\MSVC2017_64\INCLUDE\QTGUI\QPALETTE.H
D:\QT\QT5.14.2\5.14.2\MSVC2017_64\INCLUDE\QTGUI\QCOLOR.H
D:\QT\QT5.14.2\5.14.2\MSVC2017_64\INCLUDE\QTGUI\QRGB.H
D:\QT\QT5.14.2\5.14.2\MSVC2017_64\INCLUDE\QTGUI\QRGBA64.H
D:\QT\QT5.14.2\5.14.2\MSVC2017_64\INCLUDE\QTGUI\QBRUSH.H
D:\QT\QT5.14.2\5.14.2\MSVC2017_64\INCLUDE\QTGUI\QMATRIX.H
D:\QT\QT5.14.2\5.14.2\MSVC2017_64\INCLUDE\QTGUI\QPOLYGON.H
D:\QT\QT5.14.2\5.14.2\MSVC2017_64\INCLUDE\QTGUI\QREGION.H
D:\QT\QT5.14.2\5.14.2\MSVC2017_64\INCLUDE\QTCORE\QDATASTREAM.H
D:\QT\QT5.14.2\5.14.2\MSVC2017_64\INCLUDE\QTCORE\QIODEVICE.H
D:\QT\QT5.14.2\5.14.2\MSVC2017_64\INCLUDE\QTCORE\QLINE.H
D:\QT\QT5.14.2\5.14.2\MSVC2017_64\INCLUDE\QTGUI\QTRANSFORM.H
D:\QT\QT5.14.2\5.14.2\MSVC2017_64\INCLUDE\QTGUI\QPAINTERPATH.H
D:\QT\QT5.14.2\5.14.2\MSVC2017_64\INCLUDE\QTGUI\QIMAGE.H
D:\QT\QT5.14.2\5.14.2\MSVC2017_64\INCLUDE\QTGUI\QPIXELFORMAT.H
D:\QT\QT5.14.2\5.14.2\MSVC2017_64\INCLUDE\QTGUI\QPIXMAP.H
D:\QT\QT5.14.2\5.14.2\MSVC2017_64\INCLUDE\QTCORE\QSHAREDPOINTER.H
D:\QT\QT5.14.2\5.14.2\MSVC2017_64\INCLUDE\QTCORE\QSHAREDDATA.H
D:\QT\QT5.14.2\5.14.2\MSVC2017_64\INCLUDE\QTCORE\QHASH.H
D:\QT\QT5.14.2\5.14.2\MSVC2017_64\INCLUDE\QTCORE\QSHAREDPOINTER_IMPL.H
D:\CPP\VC\TOOLS\MSVC\14.29.30133\INCLUDE\MEMORY
D:\QT\QT5.14.2\5.14.2\MSVC2017_64\INCLUDE\QTGUI\QFONT.H
D:\QT\QT5.14.2\5.14.2\MSVC2017_64\INCLUDE\QTGUI\QFONTMETRICS.H
D:\QT\QT5.14.2\5.14.2\MSVC2017_64\INCLUDE\QTGUI\QFONTINFO.H
D:\QT\QT5.14.2\5.14.2\MSVC2017_64\INCLUDE\QTWIDGETS\QSIZEPOLICY.H
D:\QT\QT5.14.2\5.14.2\MSVC2017_64\INCLUDE\QTGUI\QCURSOR.H
D:\QT\QT5.14.2\5.14.2\MSVC2017_64\INCLUDE\QTGUI\QKEYSEQUENCE.H
D:\PROGRAMS_KODS\WYPOZYCZALNIAPAJEK — KOPIA\WYPOZYCZALNIAPAJEK\MAINWINDOW.H
D:\QT\QT5.14.2\5.14.2\MSVC2017_64\INCLUDE\QTWIDGETS\QWIDGET
D:\QT\QT5.14.2\5.14.2\MSVC2017_64\INCLUDE\QTWIDGETS\QGRIDLAYOUT
D:\QT\QT5.14.2\5.14.2\MSVC2017_64\INCLUDE\QTWIDGETS\QGRIDLAYOUT.H
D:\QT\QT5.14.2\5.14.2\MSVC2017_64\INCLUDE\QTWIDGETS\QLAYOUT.H
D:\QT\QT5.14.2\5.14.2\MSVC2017_64\INCLUDE\QTWIDGETS\QLAYOUTITEM.H
D:\QT\QT5.14.2\5.14.2\MSVC2017_64\INCLUDE\QTWIDGETS\QBOXLAYOUT.H
D:\QT\QT5.14.2\5.14.2\MSVC2017_64\INCLUDE\QTWIDGETS\QLABEL.H
D:\QT\QT5.14.2\5.14.2\MSVC2017_64\INCLUDE\QTWIDGETS\QFRAME.H
D:\QT\QT5.14.2\5.14.2\MSVC2017_64\INCLUDE\QTWIDGETS\QPUSHBUTTON.H
D:\QT\QT5.14.2\5.14.2\MSVC2017_64\INCLUDE\QTWIDGETS\QABSTRACTBUTTON.H
D:\QT\QT5.14.2\5.14.2\MSVC2017_64\INCLUDE\QTGUI\QICON.H
D:\QT\QT5.14.2\5.14.2\MSVC2017_64\INCLUDE\QTWIDGETS\QLINEEDIT.H
D:\QT\QT5.14.2\5.14.2\MSVC2017_64\INCLUDE\QTGUI\QTEXTCURSOR.H
D:\QT\QT5.14.2\5.14.2\MSVC2017_64\INCLUDE\QTGUI\QTEXTFORMAT.H
D:\QT\QT5.14.2\5.14.2\MSVC2017_64\INCLUDE\QTCORE\QVARIANT.H
D:\QT\QT5.14.2\5.14.2\MSVC2017_64\INCLUDE\QTCORE\QMAP.H
D:\QT\QT5.14.2\5.14.2\MSVC2017_64\INCLUDE\QTGUI\QPEN.H
D:\QT\QT5.14.2\5.14.2\MSVC2017_64\INCLUDE\QTGUI\QTEXTOPTION.H
D:\QT\QT5.14.2\5.14.2\MSVC2017_64\INCLUDE\QTWIDGETS\QGROUPBOX.H
D:\QT\QT5.14.2\5.14.2\MSVC2017_64\INCLUDE\QTWIDGETS\QSTACKEDWIDGET.H
^D:\PROGRAMS_KODS\WYPOZYCZALNIAPAJEK — KOPIA\WYPOZYCZALNIAPAJEK\MAIN.CPP
D:\PROGRAMS_KODS\WYPOZYCZALNIAPAJEK — KOPIA\WYPOZYCZALNIAPAJEK\MAINWINDOW.H
D:\QT\QT5.14.2\5.14.2\MSVC2017_64\INCLUDE\QTWIDGETS\QWIDGET
D:\QT\QT5.14.2\5.14.2\MSVC2017_64\INCLUDE\QTWIDGETS\QWIDGET.H
D:\QT\QT5.14.2\5.14.2\MSVC2017_64\INCLUDE\QTWIDGETS\QTWIDGETSGLOBAL.H
D:\QT\QT5.14.2\5.14.2\MSVC2017_64\INCLUDE\QTGUI\QTGUIGLOBAL.H
D:\QT\QT5.14.2\5.14.2\MSVC2017_64\INCLUDE\QTCORE\QGLOBAL.H
D:\CPP\VC\TOOLS\MSVC\14.29.30133\INCLUDE\TYPE_TRAITS
D:\CPP\VC\TOOLS\MSVC\14.29.30133\INCLUDE\YVALS_CORE.H
D:\CPP\VC\TOOLS\MSVC\14.29.30133\INCLUDE\VCRUNTIME.H
D:\CPP\VC\TOOLS\MSVC\14.29.30133\INCLUDE\SAL.H
D:\CPP\VC\TOOLS\MSVC\14.29.30133\INCLUDE\CONCURRENCYSAL.H
D:\CPP\VC\TOOLS\MSVC\14.29.30133\INCLUDE\VADEFS.H
D:\CPP\VC\TOOLS\MSVC\14.29.30133\INCLUDE\XKEYCHECK.H
D:\CPP\VC\TOOLS\MSVC\14.29.30133\INCLUDE\CSTDINT
D:\CPP\VC\TOOLS\MSVC\14.29.30133\INCLUDE\STDINT.H
D:\CPP\VC\TOOLS\MSVC\14.29.30133\INCLUDE\XSTDDEF
D:\CPP\VC\TOOLS\MSVC\14.29.30133\INCLUDE\CSTDDEF
D:\WINDOWS KITS\10\INCLUDE\10.0.18362.0\UCRT\STDDEF.H
D:\WINDOWS KITS\10\INCLUDE\10.0.18362.0\UCRT\CORECRT.H
D:\CPP\VC\TOOLS\MSVC\14.29.30133\INCLUDE\XTR1COMMON
D:\CPP\VC\TOOLS\MSVC\14.29.30133\INCLUDE\CSTDLIB
D:\WINDOWS KITS\10\INCLUDE\10.0.18362.0\UCRT\MATH.H
D:\WINDOWS KITS\10\INCLUDE\10.0.18362.0\UCRT\CORECRT_MATH.H
D:\WINDOWS KITS\10\INCLUDE\10.0.18362.0\UCRT\STDLIB.H
D:\WINDOWS KITS\10\INCLUDE\10.0.18362.0\UCRT\CORECRT_MALLOC.H
D:\WINDOWS KITS\10\INCLUDE\10.0.18362.0\UCRT\CORECRT_SEARCH.H
D:\WINDOWS KITS\10\INCLUDE\10.0.18362.0\UCRT\CORECRT_WSTDLIB.H
D:\CPP\VC\TOOLS\MSVC\14.29.30133\INCLUDE\LIMITS.H
D:\CPP\VC\TOOLS\MSVC\14.29.30133\INCLUDE\INITIALIZER_LIST
D:\CPP\VC\TOOLS\MSVC\14.29.30133\INCLUDE\UTILITY
D:\WINDOWS KITS\10\INCLUDE\10.0.18362.0\UCRT\ASSERT.H
D:\QT\QT5.14.2\5.14.2\MSVC2017_64\INCLUDE\QTCORE\QCONFIG.H
D:\QT\QT5.14.2\5.14.2\MSVC2017_64\INCLUDE\QTCORE\QTCORE-CONFIG.H
D:\QT\QT5.14.2\5.14.2\MSVC2017_64\INCLUDE\QTCORE\QSYSTEMDETECTION.H
D:\QT\QT5.14.2\5.14.2\MSVC2017_64\INCLUDE\QTCORE\QPROCESSORDETECTION.H
D:\QT\QT5.14.2\5.14.2\MSVC2017_64\INCLUDE\QTCORE\QCOMPILERDETECTION.H
D:\CPP\VC\TOOLS\MSVC\14.29.30133\INCLUDE\ALGORITHM
D:\CPP\VC\TOOLS\MSVC\14.29.30133\INCLUDE\XMEMORY
D:\CPP\VC\TOOLS\MSVC\14.29.30133\INCLUDE\LIMITS
D:\CPP\VC\TOOLS\MSVC\14.29.30133\INCLUDE\CFLOAT
D:\WINDOWS KITS\10\INCLUDE\10.0.18362.0\UCRT\FLOAT.H
D:\CPP\VC\TOOLS\MSVC\14.29.30133\INCLUDE\CLIMITS
D:\CPP\VC\TOOLS\MSVC\14.29.30133\INCLUDE\CWCHAR
D:\CPP\VC\TOOLS\MSVC\14.29.30133\INCLUDE\CSTDIO
D:\WINDOWS KITS\10\INCLUDE\10.0.18362.0\UCRT\STDIO.H
D:\WINDOWS KITS\10\INCLUDE\10.0.18362.0\UCRT\CORECRT_WSTDIO.H
D:\WINDOWS KITS\10\INCLUDE\10.0.18362.0\UCRT\CORECRT_STDIO_CONFIG.H
D:\WINDOWS KITS\10\INCLUDE\10.0.18362.0\UCRT\WCHAR.H
D:\WINDOWS KITS\10\INCLUDE\10.0.18362.0\UCRT\CORECRT_MEMCPY_S.H
D:\WINDOWS KITS\10\INCLUDE\10.0.18362.0\UCRT\ERRNO.H
D:\CPP\VC\TOOLS\MSVC\14.29.30133\INCLUDE\VCRUNTIME_STRING.H
D:\WINDOWS KITS\10\INCLUDE\10.0.18362.0\UCRT\CORECRT_WCONIO.H
D:\WINDOWS KITS\10\INCLUDE\10.0.18362.0\UCRT\CORECRT_WCTYPE.H
D:\WINDOWS KITS\10\INCLUDE\10.0.18362.0\UCRT\CORECRT_WDIRECT.H
D:\WINDOWS KITS\10\INCLUDE\10.0.18362.0\UCRT\CORECRT_WIO.H
D:\WINDOWS KITS\10\INCLUDE\10.0.18362.0\UCRT\CORECRT_SHARE.H
D:\WINDOWS KITS\10\INCLUDE\10.0.18362.0\UCRT\CORECRT_WPROCESS.H
D:\WINDOWS KITS\10\INCLUDE\10.0.18362.0\UCRT\CORECRT_WSTRING.H
D:\WINDOWS KITS\10\INCLUDE\10.0.18362.0\UCRT\CORECRT_WTIME.H
D:\WINDOWS KITS\10\INCLUDE\10.0.18362.0\UCRT\SYS\STAT.H
D:\WINDOWS KITS\10\INCLUDE\10.0.18362.0\UCRT\SYS\TYPES.H
D:\CPP\VC\TOOLS\MSVC\14.29.30133\INCLUDE\INTRIN0.H
D:\CPP\VC\TOOLS\MSVC\14.29.30133\INCLUDE\INTRIN0.INL.H
D:\CPP\VC\TOOLS\MSVC\14.29.30133\INCLUDE\ISA_AVAILABILITY.H
D:\CPP\VC\TOOLS\MSVC\14.29.30133\INCLUDE\NEW
D:\CPP\VC\TOOLS\MSVC\14.29.30133\INCLUDE\EXCEPTION
D:\CPP\VC\TOOLS\MSVC\14.29.30133\INCLUDE\YVALS.H
D:\WINDOWS KITS\10\INCLUDE\10.0.18362.0\UCRT\CRTDBG.H
D:\CPP\VC\TOOLS\MSVC\14.29.30133\INCLUDE\VCRUNTIME_NEW_DEBUG.H
D:\CPP\VC\TOOLS\MSVC\14.29.30133\INCLUDE\VCRUNTIME_NEW.H
D:\CPP\VC\TOOLS\MSVC\14.29.30133\INCLUDE\CRTDEFS.H
D:\CPP\VC\TOOLS\MSVC\14.29.30133\INCLUDE\USE_ANSI.H
D:\WINDOWS KITS\10\INCLUDE\10.0.18362.0\UCRT\MALLOC.H
D:\CPP\VC\TOOLS\MSVC\14.29.30133\INCLUDE\VCRUNTIME_EXCEPTION.H
D:\CPP\VC\TOOLS\MSVC\14.29.30133\INCLUDE\EH.H
D:\WINDOWS KITS\10\INCLUDE\10.0.18362.0\UCRT\CORECRT_TERMINATE.H
D:\CPP\VC\TOOLS\MSVC\14.29.30133\INCLUDE\XATOMIC.H
D:\CPP\VC\TOOLS\MSVC\14.29.30133\INCLUDE\XUTILITY
D:\CPP\VC\TOOLS\MSVC\14.29.30133\INCLUDE\CSTRING
D:\WINDOWS KITS\10\INCLUDE\10.0.18362.0\UCRT\STRING.H
D:\WINDOWS KITS\10\INCLUDE\10.0.18362.0\UCRT\CORECRT_MEMORY.H
D:\QT\QT5.14.2\5.14.2\MSVC2017_64\INCLUDE\QTCORE\QTYPEINFO.H
D:\QT\QT5.14.2\5.14.2\MSVC2017_64\INCLUDE\QTCORE\QSYSINFO.H
D:\QT\QT5.14.2\5.14.2\MSVC2017_64\INCLUDE\QTCORE\QLOGGING.H
D:\QT\QT5.14.2\5.14.2\MSVC2017_64\INCLUDE\QTCORE\QFLAGS.H
D:\QT\QT5.14.2\5.14.2\MSVC2017_64\INCLUDE\QTCORE\QATOMIC.H
D:\QT\QT5.14.2\5.14.2\MSVC2017_64\INCLUDE\QTCORE\QBASICATOMIC.H
D:\QT\QT5.14.2\5.14.2\MSVC2017_64\INCLUDE\QTCORE\QATOMIC_CXX11.H
D:\QT\QT5.14.2\5.14.2\MSVC2017_64\INCLUDE\QTCORE\QGENERICATOMIC.H
D:\CPP\VC\TOOLS\MSVC\14.29.30133\INCLUDE\ATOMIC
D:\CPP\VC\TOOLS\MSVC\14.29.30133\INCLUDE\XTHREADS.H
D:\CPP\VC\TOOLS\MSVC\14.29.30133\INCLUDE\XTIMEC.H
D:\CPP\VC\TOOLS\MSVC\14.29.30133\INCLUDE\CTIME
D:\WINDOWS KITS\10\INCLUDE\10.0.18362.0\UCRT\TIME.H
D:\QT\QT5.14.2\5.14.2\MSVC2017_64\INCLUDE\QTCORE\QGLOBALSTATIC.H
D:\QT\QT5.14.2\5.14.2\MSVC2017_64\INCLUDE\QTCORE\QNUMERIC.H
D:\QT\QT5.14.2\5.14.2\MSVC2017_64\INCLUDE\QTCORE\QVERSIONTAGGING.H
D:\QT\QT5.14.2\5.14.2\MSVC2017_64\INCLUDE\QTGUI\QTGUI-CONFIG.H
D:\QT\QT5.14.2\5.14.2\MSVC2017_64\INCLUDE\QTWIDGETS\QTWIDGETS-CONFIG.H
D:\QT\QT5.14.2\5.14.2\MSVC2017_64\INCLUDE\QTGUI\QWINDOWDEFS.H
D:\QT\QT5.14.2\5.14.2\MSVC2017_64\INCLUDE\QTCORE\QOBJECTDEFS.H
D:\QT\QT5.14.2\5.14.2\MSVC2017_64\INCLUDE\QTCORE\QNAMESPACE.H
D:\QT\QT5.14.2\5.14.2\MSVC2017_64\INCLUDE\QTCORE\QOBJECTDEFS_IMPL.H
D:\QT\QT5.14.2\5.14.2\MSVC2017_64\INCLUDE\QTGUI\QWINDOWDEFS_WIN.H
D:\QT\QT5.14.2\5.14.2\MSVC2017_64\INCLUDE\QTCORE\QOBJECT.H
D:\QT\QT5.14.2\5.14.2\MSVC2017_64\INCLUDE\QTCORE\QSTRING.H
D:\QT\QT5.14.2\5.14.2\MSVC2017_64\INCLUDE\QTCORE\QCHAR.H
D:\QT\QT5.14.2\5.14.2\MSVC2017_64\INCLUDE\QTCORE\QBYTEARRAY.H
D:\QT\QT5.14.2\5.14.2\MSVC2017_64\INCLUDE\QTCORE\QREFCOUNT.H
D:\QT\QT5.14.2\5.14.2\MSVC2017_64\INCLUDE\QTCORE\QARRAYDATA.H
D:\CPP\VC\TOOLS\MSVC\14.29.30133\INCLUDE\STDARG.H
D:\CPP\VC\TOOLS\MSVC\14.29.30133\INCLUDE\STRING
D:\CPP\VC\TOOLS\MSVC\14.29.30133\INCLUDE\XSTRING
D:\CPP\VC\TOOLS\MSVC\14.29.30133\INCLUDE\IOSFWD
D:\CPP\VC\TOOLS\MSVC\14.29.30133\INCLUDE\CCTYPE
D:\WINDOWS KITS\10\INCLUDE\10.0.18362.0\UCRT\CTYPE.H
D:\CPP\VC\TOOLS\MSVC\14.29.30133\INCLUDE\ITERATOR
D:\QT\QT5.14.2\5.14.2\MSVC2017_64\INCLUDE\QTCORE\QSTRINGLITERAL.H
D:\QT\QT5.14.2\5.14.2\MSVC2017_64\INCLUDE\QTCORE\QSTRINGALGORITHMS.H
D:\QT\QT5.14.2\5.14.2\MSVC2017_64\INCLUDE\QTCORE\QSTRINGVIEW.H
D:\QT\QT5.14.2\5.14.2\MSVC2017_64\INCLUDE\QTCORE\QLIST.H
D:\QT\QT5.14.2\5.14.2\MSVC2017_64\INCLUDE\QTCORE\QALGORITHMS.H
D:\CPP\VC\TOOLS\MSVC\14.29.30133\INCLUDE\INTRIN.H
D:\CPP\VC\TOOLS\MSVC\14.29.30133\INCLUDE\SETJMP.H
D:\CPP\VC\TOOLS\MSVC\14.29.30133\INCLUDE\IMMINTRIN.H
D:\CPP\VC\TOOLS\MSVC\14.29.30133\INCLUDE\WMMINTRIN.H
D:\CPP\VC\TOOLS\MSVC\14.29.30133\INCLUDE\NMMINTRIN.H
D:\CPP\VC\TOOLS\MSVC\14.29.30133\INCLUDE\SMMINTRIN.H
D:\CPP\VC\TOOLS\MSVC\14.29.30133\INCLUDE\TMMINTRIN.H
D:\CPP\VC\TOOLS\MSVC\14.29.30133\INCLUDE\PMMINTRIN.H
D:\CPP\VC\TOOLS\MSVC\14.29.30133\INCLUDE\EMMINTRIN.H
D:\CPP\VC\TOOLS\MSVC\14.29.30133\INCLUDE\XMMINTRIN.H
D:\CPP\VC\TOOLS\MSVC\14.29.30133\INCLUDE\MMINTRIN.H
D:\CPP\VC\TOOLS\MSVC\14.29.30133\INCLUDE\ZMMINTRIN.H
D:\CPP\VC\TOOLS\MSVC\14.29.30133\INCLUDE\AMMINTRIN.H
D:\QT\QT5.14.2\5.14.2\MSVC2017_64\INCLUDE\QTCORE\QITERATOR.H
D:\QT\QT5.14.2\5.14.2\MSVC2017_64\INCLUDE\QTCORE\QHASHFUNCTIONS.H
D:\QT\QT5.14.2\5.14.2\MSVC2017_64\INCLUDE\QTCORE\QPAIR.H
D:\CPP\VC\TOOLS\MSVC\14.29.30133\INCLUDE\NUMERIC
D:\CPP\VC\TOOLS\MSVC\14.29.30133\INCLUDE\FUNCTIONAL
D:\CPP\VC\TOOLS\MSVC\14.29.30133\INCLUDE\TUPLE
D:\CPP\VC\TOOLS\MSVC\14.29.30133\INCLUDE\TYPEINFO
D:\CPP\VC\TOOLS\MSVC\14.29.30133\INCLUDE\VCRUNTIME_TYPEINFO.H
D:\QT\QT5.14.2\5.14.2\MSVC2017_64\INCLUDE\QTCORE\QVECTOR.H
D:\QT\QT5.14.2\5.14.2\MSVC2017_64\INCLUDE\QTCORE\QCONTAINERTOOLS_IMPL.H
D:\CPP\VC\TOOLS\MSVC\14.29.30133\INCLUDE\VECTOR
D:\QT\QT5.14.2\5.14.2\MSVC2017_64\INCLUDE\QTCORE\QPOINT.H
D:\CPP\VC\TOOLS\MSVC\14.29.30133\INCLUDE\LIST
D:\QT\QT5.14.2\5.14.2\MSVC2017_64\INCLUDE\QTCORE\QBYTEARRAYLIST.H
D:\QT\QT5.14.2\5.14.2\MSVC2017_64\INCLUDE\QTCORE\QSTRINGLIST.H
D:\QT\QT5.14.2\5.14.2\MSVC2017_64\INCLUDE\QTCORE\QREGEXP.H
D:\QT\QT5.14.2\5.14.2\MSVC2017_64\INCLUDE\QTCORE\QSTRINGMATCHER.H
D:\QT\QT5.14.2\5.14.2\MSVC2017_64\INCLUDE\QTCORE\QSCOPEDPOINTER.H
D:\QT\QT5.14.2\5.14.2\MSVC2017_64\INCLUDE\QTCORE\QMETATYPE.H
D:\QT\QT5.14.2\5.14.2\MSVC2017_64\INCLUDE\QTCORE\QVARLENGTHARRAY.H
D:\QT\QT5.14.2\5.14.2\MSVC2017_64\INCLUDE\QTCORE\QCONTAINERFWD.H
D:\CPP\VC\TOOLS\MSVC\14.29.30133\INCLUDE\MAP
D:\CPP\VC\TOOLS\MSVC\14.29.30133\INCLUDE\XTREE
D:\QT\QT5.14.2\5.14.2\MSVC2017_64\INCLUDE\QTCORE\QOBJECT_IMPL.H
D:\CPP\VC\TOOLS\MSVC\14.29.30133\INCLUDE\CHRONO
D:\CPP\VC\TOOLS\MSVC\14.29.30133\INCLUDE\__MSVC_CHRONO.HPP
D:\CPP\VC\TOOLS\MSVC\14.29.30133\INCLUDE\RATIO
D:\QT\QT5.14.2\5.14.2\MSVC2017_64\INCLUDE\QTCORE\QMARGINS.H
D:\QT\QT5.14.2\5.14.2\MSVC2017_64\INCLUDE\QTGUI\QPAINTDEVICE.H
D:\QT\QT5.14.2\5.14.2\MSVC2017_64\INCLUDE\QTCORE\QRECT.H
D:\QT\QT5.14.2\5.14.2\MSVC2017_64\INCLUDE\QTCORE\QSIZE.H
D:\QT\QT5.14.2\5.14.2\MSVC2017_64\INCLUDE\QTGUI\QPALETTE.H
D:\QT\QT5.14.2\5.14.2\MSVC2017_64\INCLUDE\QTGUI\QCOLOR.H
D:\QT\QT5.14.2\5.14.2\MSVC2017_64\INCLUDE\QTGUI\QRGB.H
D:\QT\QT5.14.2\5.14.2\MSVC2017_64\INCLUDE\QTGUI\QRGBA64.H
D:\QT\QT5.14.2\5.14.2\MSVC2017_64\INCLUDE\QTGUI\QBRUSH.H
D:\QT\QT5.14.2\5.14.2\MSVC2017_64\INCLUDE\QTGUI\QMATRIX.H
D:\QT\QT5.14.2\5.14.2\MSVC2017_64\INCLUDE\QTGUI\QPOLYGON.H
D:\QT\QT5.14.2\5.14.2\MSVC2017_64\INCLUDE\QTGUI\QREGION.H
D:\QT\QT5.14.2\5.14.2\MSVC2017_64\INCLUDE\QTCORE\QDATASTREAM.H
D:\QT\QT5.14.2\5.14.2\MSVC2017_64\INCLUDE\QTCORE\QIODEVICE.H
D:\QT\QT5.14.2\5.14.2\MSVC2017_64\INCLUDE\QTCORE\QLINE.H
D:\QT\QT5.14.2\5.14.2\MSVC2017_64\INCLUDE\QTGUI\QTRANSFORM.H
D:\QT\QT5.14.2\5.14.2\MSVC2017_64\INCLUDE\QTGUI\QPAINTERPATH.H
D:\QT\QT5.14.2\5.14.2\MSVC2017_64\INCLUDE\QTGUI\QIMAGE.H
D:\QT\QT5.14.2\5.14.2\MSVC2017_64\INCLUDE\QTGUI\QPIXELFORMAT.H
D:\QT\QT5.14.2\5.14.2\MSVC2017_64\INCLUDE\QTGUI\QPIXMAP.H
D:\QT\QT5.14.2\5.14.2\MSVC2017_64\INCLUDE\QTCORE\QSHAREDPOINTER.H
D:\QT\QT5.14.2\5.14.2\MSVC2017_64\INCLUDE\QTCORE\QSHAREDDATA.H
D:\QT\QT5.14.2\5.14.2\MSVC2017_64\INCLUDE\QTCORE\QHASH.H
D:\QT\QT5.14.2\5.14.2\MSVC2017_64\INCLUDE\QTCORE\QSHAREDPOINTER_IMPL.H
D:\CPP\VC\TOOLS\MSVC\14.29.30133\INCLUDE\MEMORY
D:\QT\QT5.14.2\5.14.2\MSVC2017_64\INCLUDE\QTGUI\QFONT.H
D:\QT\QT5.14.2\5.14.2\MSVC2017_64\INCLUDE\QTGUI\QFONTMETRICS.H
D:\QT\QT5.14.2\5.14.2\MSVC2017_64\INCLUDE\QTGUI\QFONTINFO.H
D:\QT\QT5.14.2\5.14.2\MSVC2017_64\INCLUDE\QTWIDGETS\QSIZEPOLICY.H
D:\QT\QT5.14.2\5.14.2\MSVC2017_64\INCLUDE\QTGUI\QCURSOR.H
D:\QT\QT5.14.2\5.14.2\MSVC2017_64\INCLUDE\QTGUI\QKEYSEQUENCE.H
D:\QT\QT5.14.2\5.14.2\MSVC2017_64\INCLUDE\QTWIDGETS\QGRIDLAYOUT
D:\QT\QT5.14.2\5.14.2\MSVC2017_64\INCLUDE\QTWIDGETS\QGRIDLAYOUT.H
D:\QT\QT5.14.2\5.14.2\MSVC2017_64\INCLUDE\QTWIDGETS\QLAYOUT.H
D:\QT\QT5.14.2\5.14.2\MSVC2017_64\INCLUDE\QTWIDGETS\QLAYOUTITEM.H
D:\QT\QT5.14.2\5.14.2\MSVC2017_64\INCLUDE\QTWIDGETS\QBOXLAYOUT.H
D:\QT\QT5.14.2\5.14.2\MSVC2017_64\INCLUDE\QTWIDGETS\QLABEL.H
D:\QT\QT5.14.2\5.14.2\MSVC2017_64\INCLUDE\QTWIDGETS\QFRAME.H
D:\QT\QT5.14.2\5.14.2\MSVC2017_64\INCLUDE\QTWIDGETS\QPUSHBUTTON.H
D:\QT\QT5.14.2\5.14.2\MSVC2017_64\INCLUDE\QTWIDGETS\QABSTRACTBUTTON.H
D:\QT\QT5.14.2\5.14.2\MSVC2017_64\INCLUDE\QTGUI\QICON.H
D:\QT\QT5.14.2\5.14.2\MSVC2017_64\INCLUDE\QTWIDGETS\QLINEEDIT.H
D:\QT\QT5.14.2\5.14.2\MSVC2017_64\INCLUDE\QTGUI\QTEXTCURSOR.H
D:\QT\QT5.14.2\5.14.2\MSVC2017_64\INCLUDE\QTGUI\QTEXTFORMAT.H
D:\QT\QT5.14.2\5.14.2\MSVC2017_64\INCLUDE\QTCORE\QVARIANT.H
D:\QT\QT5.14.2\5.14.2\MSVC2017_64\INCLUDE\QTCORE\QMAP.H
D:\QT\QT5.14.2\5.14.2\MSVC2017_64\INCLUDE\QTGUI\QPEN.H
D:\QT\QT5.14.2\5.14.2\MSVC2017_64\INCLUDE\QTGUI\QTEXTOPTION.H
D:\QT\QT5.14.2\5.14.2\MSVC2017_64\INCLUDE\QTWIDGETS\QGROUPBOX.H
D:\QT\QT5.14.2\5.14.2\MSVC2017_64\INCLUDE\QTWIDGETS\QSTACKEDWIDGET.H
D:\QT\QT5.14.2\5.14.2\MSVC2017_64\INCLUDE\QTWIDGETS\QAPPLICATION
D:\QT\QT5.14.2\5.14.2\MSVC2017_64\INCLUDE\QTWIDGETS\QAPPLICATION.H
D:\QT\QT5.14.2\5.14.2\MSVC2017_64\INCLUDE\QTCORE\QCOREAPPLICATION.H
D:\QT\QT5.14.2\5.14.2\MSVC2017_64\INCLUDE\QTCORE\QCOREEVENT.H
D:\QT\QT5.14.2\5.14.2\MSVC2017_64\INCLUDE\QTCORE\QEVENTLOOP.H
D:\QT\QT5.14.2\5.14.2\MSVC2017_64\INCLUDE\QTGUI\QGUIAPPLICATION.H
D:\QT\QT5.14.2\5.14.2\MSVC2017_64\INCLUDE\QTGUI\QINPUTMETHOD.H
D:\QT\QT5.14.2\5.14.2\MSVC2017_64\INCLUDE\QTCORE\QLOCALE.H
D:\PROGRAMS_KODS\WYPOZYCZALNIAPAJEK — KOPIA\WYPOZYCZALNIAPAJEK\CONTROL_PANEL.H
^D:\PROGRAMS_KODS\WYPOZYCZALNIAPAJEK — KOPIA\WYPOZYCZALNIAPAJEK\X64\RELEASE\MOC\MOC_MAINWINDOW.CPP
D:\CPP\VC\TOOLS\MSVC\14.29.30133\INCLUDE\MEMORY
D:\CPP\VC\TOOLS\MSVC\14.29.30133\INCLUDE\YVALS_CORE.H
D:\CPP\VC\TOOLS\MSVC\14.29.30133\INCLUDE\VCRUNTIME.H
D:\CPP\VC\TOOLS\MSVC\14.29.30133\INCLUDE\SAL.H
D:\CPP\VC\TOOLS\MSVC\14.29.30133\INCLUDE\CONCURRENCYSAL.H
D:\CPP\VC\TOOLS\MSVC\14.29.30133\INCLUDE\VADEFS.H
D:\CPP\VC\TOOLS\MSVC\14.29.30133\INCLUDE\XKEYCHECK.H
D:\CPP\VC\TOOLS\MSVC\14.29.30133\INCLUDE\EXCEPTION
D:\CPP\VC\TOOLS\MSVC\14.29.30133\INCLUDE\YVALS.H
D:\WINDOWS KITS\10\INCLUDE\10.0.18362.0\UCRT\CRTDBG.H
D:\WINDOWS KITS\10\INCLUDE\10.0.18362.0\UCRT\CORECRT.H
D:\CPP\VC\TOOLS\MSVC\14.29.30133\INCLUDE\VCRUNTIME_NEW_DEBUG.H
D:\CPP\VC\TOOLS\MSVC\14.29.30133\INCLUDE\VCRUNTIME_NEW.H
D:\CPP\VC\TOOLS\MSVC\14.29.30133\INCLUDE\CRTDEFS.H
D:\CPP\VC\TOOLS\MSVC\14.29.30133\INCLUDE\USE_ANSI.H
D:\CPP\VC\TOOLS\MSVC\14.29.30133\INCLUDE\TYPE_TRAITS
D:\CPP\VC\TOOLS\MSVC\14.29.30133\INCLUDE\CSTDINT
D:\CPP\VC\TOOLS\MSVC\14.29.30133\INCLUDE\STDINT.H
D:\CPP\VC\TOOLS\MSVC\14.29.30133\INCLUDE\XSTDDEF
D:\CPP\VC\TOOLS\MSVC\14.29.30133\INCLUDE\CSTDDEF
D:\WINDOWS KITS\10\INCLUDE\10.0.18362.0\UCRT\STDDEF.H
D:\CPP\VC\TOOLS\MSVC\14.29.30133\INCLUDE\XTR1COMMON
D:\CPP\VC\TOOLS\MSVC\14.29.30133\INCLUDE\CSTDLIB
D:\WINDOWS KITS\10\INCLUDE\10.0.18362.0\UCRT\MATH.H
D:\WINDOWS KITS\10\INCLUDE\10.0.18362.0\UCRT\CORECRT_MATH.H
D:\WINDOWS KITS\10\INCLUDE\10.0.18362.0\UCRT\STDLIB.H
D:\WINDOWS KITS\10\INCLUDE\10.0.18362.0\UCRT\CORECRT_MALLOC.H
D:\WINDOWS KITS\10\INCLUDE\10.0.18362.0\UCRT\CORECRT_SEARCH.H
D:\WINDOWS KITS\10\INCLUDE\10.0.18362.0\UCRT\CORECRT_WSTDLIB.H
D:\CPP\VC\TOOLS\MSVC\14.29.30133\INCLUDE\LIMITS.H
D:\CPP\VC\TOOLS\MSVC\14.29.30133\INCLUDE\INITIALIZER_LIST
D:\WINDOWS KITS\10\INCLUDE\10.0.18362.0\UCRT\MALLOC.H
D:\CPP\VC\TOOLS\MSVC\14.29.30133\INCLUDE\VCRUNTIME_EXCEPTION.H
D:\CPP\VC\TOOLS\MSVC\14.29.30133\INCLUDE\EH.H
D:\WINDOWS KITS\10\INCLUDE\10.0.18362.0\UCRT\CORECRT_TERMINATE.H
D:\CPP\VC\TOOLS\MSVC\14.29.30133\INCLUDE\IOSFWD
D:\CPP\VC\TOOLS\MSVC\14.29.30133\INCLUDE\CSTDIO
D:\WINDOWS KITS\10\INCLUDE\10.0.18362.0\UCRT\STDIO.H
D:\WINDOWS KITS\10\INCLUDE\10.0.18362.0\UCRT\CORECRT_WSTDIO.H
D:\WINDOWS KITS\10\INCLUDE\10.0.18362.0\UCRT\CORECRT_STDIO_CONFIG.H
D:\CPP\VC\TOOLS\MSVC\14.29.30133\INCLUDE\CSTRING
D:\WINDOWS KITS\10\INCLUDE\10.0.18362.0\UCRT\STRING.H
D:\WINDOWS KITS\10\INCLUDE\10.0.18362.0\UCRT\CORECRT_MEMORY.H
D:\WINDOWS KITS\10\INCLUDE\10.0.18362.0\UCRT\CORECRT_MEMCPY_S.H
D:\WINDOWS KITS\10\INCLUDE\10.0.18362.0\UCRT\ERRNO.H
D:\CPP\VC\TOOLS\MSVC\14.29.30133\INCLUDE\VCRUNTIME_STRING.H
D:\WINDOWS KITS\10\INCLUDE\10.0.18362.0\UCRT\CORECRT_WSTRING.H
D:\CPP\VC\TOOLS\MSVC\14.29.30133\INCLUDE\CWCHAR
D:\WINDOWS KITS\10\INCLUDE\10.0.18362.0\UCRT\WCHAR.H
D:\WINDOWS KITS\10\INCLUDE\10.0.18362.0\UCRT\CORECRT_WCONIO.H
D:\WINDOWS KITS\10\INCLUDE\10.0.18362.0\UCRT\CORECRT_WCTYPE.H
D:\WINDOWS KITS\10\INCLUDE\10.0.18362.0\UCRT\CORECRT_WDIRECT.H
D:\WINDOWS KITS\10\INCLUDE\10.0.18362.0\UCRT\CORECRT_WIO.H
D:\WINDOWS KITS\10\INCLUDE\10.0.18362.0\UCRT\CORECRT_SHARE.H
D:\WINDOWS KITS\10\INCLUDE\10.0.18362.0\UCRT\CORECRT_WPROCESS.H
D:\WINDOWS KITS\10\INCLUDE\10.0.18362.0\UCRT\CORECRT_WTIME.H
D:\WINDOWS KITS\10\INCLUDE\10.0.18362.0\UCRT\SYS\STAT.H
D:\WINDOWS KITS\10\INCLUDE\10.0.18362.0\UCRT\SYS\TYPES.H
D:\CPP\VC\TOOLS\MSVC\14.29.30133\INCLUDE\TYPEINFO
D:\CPP\VC\TOOLS\MSVC\14.29.30133\INCLUDE\VCRUNTIME_TYPEINFO.H
D:\CPP\VC\TOOLS\MSVC\14.29.30133\INCLUDE\XMEMORY
D:\CPP\VC\TOOLS\MSVC\14.29.30133\INCLUDE\LIMITS
D:\CPP\VC\TOOLS\MSVC\14.29.30133\INCLUDE\CFLOAT
D:\WINDOWS KITS\10\INCLUDE\10.0.18362.0\UCRT\FLOAT.H
D:\CPP\VC\TOOLS\MSVC\14.29.30133\INCLUDE\CLIMITS
D:\CPP\VC\TOOLS\MSVC\14.29.30133\INCLUDE\INTRIN0.H
D:\CPP\VC\TOOLS\MSVC\14.29.30133\INCLUDE\INTRIN0.INL.H
D:\CPP\VC\TOOLS\MSVC\14.29.30133\INCLUDE\ISA_AVAILABILITY.H
D:\CPP\VC\TOOLS\MSVC\14.29.30133\INCLUDE\NEW
D:\CPP\VC\TOOLS\MSVC\14.29.30133\INCLUDE\XATOMIC.H
D:\CPP\VC\TOOLS\MSVC\14.29.30133\INCLUDE\XUTILITY
D:\CPP\VC\TOOLS\MSVC\14.29.30133\INCLUDE\UTILITY
D:\PROGRAMS_KODS\WYPOZYCZALNIAPAJEK — KOPIA\WYPOZYCZALNIAPAJEK\MAINWINDOW.H
D:\QT\QT5.14.2\5.14.2\MSVC2017_64\INCLUDE\QTWIDGETS\QWIDGET
D:\QT\QT5.14.2\5.14.2\MSVC2017_64\INCLUDE\QTWIDGETS\QWIDGET.H
D:\QT\QT5.14.2\5.14.2\MSVC2017_64\INCLUDE\QTWIDGETS\QTWIDGETSGLOBAL.H
D:\QT\QT5.14.2\5.14.2\MSVC2017_64\INCLUDE\QTGUI\QTGUIGLOBAL.H
D:\QT\QT5.14.2\5.14.2\MSVC2017_64\INCLUDE\QTCORE\QGLOBAL.H
D:\WINDOWS KITS\10\INCLUDE\10.0.18362.0\UCRT\ASSERT.H
D:\QT\QT5.14.2\5.14.2\MSVC2017_64\INCLUDE\QTCORE\QCONFIG.H
D:\QT\QT5.14.2\5.14.2\MSVC2017_64\INCLUDE\QTCORE\QTCORE-CONFIG.H
D:\QT\QT5.14.2\5.14.2\MSVC2017_64\INCLUDE\QTCORE\QSYSTEMDETECTION.H
D:\QT\QT5.14.2\5.14.2\MSVC2017_64\INCLUDE\QTCORE\QPROCESSORDETECTION.H
D:\QT\QT5.14.2\5.14.2\MSVC2017_64\INCLUDE\QTCORE\QCOMPILERDETECTION.H
D:\CPP\VC\TOOLS\MSVC\14.29.30133\INCLUDE\ALGORITHM
D:\QT\QT5.14.2\5.14.2\MSVC2017_64\INCLUDE\QTCORE\QTYPEINFO.H
D:\QT\QT5.14.2\5.14.2\MSVC2017_64\INCLUDE\QTCORE\QSYSINFO.H
D:\QT\QT5.14.2\5.14.2\MSVC2017_64\INCLUDE\QTCORE\QLOGGING.H
D:\QT\QT5.14.2\5.14.2\MSVC2017_64\INCLUDE\QTCORE\QFLAGS.H
D:\QT\QT5.14.2\5.14.2\MSVC2017_64\INCLUDE\QTCORE\QATOMIC.H
D:\QT\QT5.14.2\5.14.2\MSVC2017_64\INCLUDE\QTCORE\QBASICATOMIC.H
D:\QT\QT5.14.2\5.14.2\MSVC2017_64\INCLUDE\QTCORE\QATOMIC_CXX11.H
D:\QT\QT5.14.2\5.14.2\MSVC2017_64\INCLUDE\QTCORE\QGENERICATOMIC.H
D:\CPP\VC\TOOLS\MSVC\14.29.30133\INCLUDE\ATOMIC
D:\CPP\VC\TOOLS\MSVC\14.29.30133\INCLUDE\XTHREADS.H
D:\CPP\VC\TOOLS\MSVC\14.29.30133\INCLUDE\XTIMEC.H
D:\CPP\VC\TOOLS\MSVC\14.29.30133\INCLUDE\CTIME
D:\WINDOWS KITS\10\INCLUDE\10.0.18362.0\UCRT\TIME.H
D:\QT\QT5.14.2\5.14.2\MSVC2017_64\INCLUDE\QTCORE\QGLOBALSTATIC.H
D:\QT\QT5.14.2\5.14.2\MSVC2017_64\INCLUDE\QTCORE\QNUMERIC.H
D:\QT\QT5.14.2\5.14.2\MSVC2017_64\INCLUDE\QTCORE\QVERSIONTAGGING.H
D:\QT\QT5.14.2\5.14.2\MSVC2017_64\INCLUDE\QTGUI\QTGUI-CONFIG.H
D:\QT\QT5.14.2\5.14.2\MSVC2017_64\INCLUDE\QTWIDGETS\QTWIDGETS-CONFIG.H
D:\QT\QT5.14.2\5.14.2\MSVC2017_64\INCLUDE\QTGUI\QWINDOWDEFS.H
D:\QT\QT5.14.2\5.14.2\MSVC2017_64\INCLUDE\QTCORE\QOBJECTDEFS.H
D:\QT\QT5.14.2\5.14.2\MSVC2017_64\INCLUDE\QTCORE\QNAMESPACE.H
D:\QT\QT5.14.2\5.14.2\MSVC2017_64\INCLUDE\QTCORE\QOBJECTDEFS_IMPL.H
D:\QT\QT5.14.2\5.14.2\MSVC2017_64\INCLUDE\QTGUI\QWINDOWDEFS_WIN.H
D:\QT\QT5.14.2\5.14.2\MSVC2017_64\INCLUDE\QTCORE\QOBJECT.H
D:\QT\QT5.14.2\5.14.2\MSVC2017_64\INCLUDE\QTCORE\QSTRING.H
D:\QT\QT5.14.2\5.14.2\MSVC2017_64\INCLUDE\QTCORE\QCHAR.H
D:\QT\QT5.14.2\5.14.2\MSVC2017_64\INCLUDE\QTCORE\QBYTEARRAY.H
D:\QT\QT5.14.2\5.14.2\MSVC2017_64\INCLUDE\QTCORE\QREFCOUNT.H
D:\QT\QT5.14.2\5.14.2\MSVC2017_64\INCLUDE\QTCORE\QARRAYDATA.H
D:\CPP\VC\TOOLS\MSVC\14.29.30133\INCLUDE\STDARG.H
D:\CPP\VC\TOOLS\MSVC\14.29.30133\INCLUDE\STRING
D:\CPP\VC\TOOLS\MSVC\14.29.30133\INCLUDE\XSTRING
D:\CPP\VC\TOOLS\MSVC\14.29.30133\INCLUDE\CCTYPE
D:\WINDOWS KITS\10\INCLUDE\10.0.18362.0\UCRT\CTYPE.H
D:\CPP\VC\TOOLS\MSVC\14.29.30133\INCLUDE\ITERATOR
D:\QT\QT5.14.2\5.14.2\MSVC2017_64\INCLUDE\QTCORE\QSTRINGLITERAL.H
D:\QT\QT5.14.2\5.14.2\MSVC2017_64\INCLUDE\QTCORE\QSTRINGALGORITHMS.H
D:\QT\QT5.14.2\5.14.2\MSVC2017_64\INCLUDE\QTCORE\QSTRINGVIEW.H
D:\QT\QT5.14.2\5.14.2\MSVC2017_64\INCLUDE\QTCORE\QLIST.H
D:\QT\QT5.14.2\5.14.2\MSVC2017_64\INCLUDE\QTCORE\QALGORITHMS.H
D:\CPP\VC\TOOLS\MSVC\14.29.30133\INCLUDE\INTRIN.H
D:\CPP\VC\TOOLS\MSVC\14.29.30133\INCLUDE\SETJMP.H
D:\CPP\VC\TOOLS\MSVC\14.29.30133\INCLUDE\IMMINTRIN.H
D:\CPP\VC\TOOLS\MSVC\14.29.30133\INCLUDE\WMMINTRIN.H
D:\CPP\VC\TOOLS\MSVC\14.29.30133\INCLUDE\NMMINTRIN.H
D:\CPP\VC\TOOLS\MSVC\14.29.30133\INCLUDE\SMMINTRIN.H
D:\CPP\VC\TOOLS\MSVC\14.29.30133\INCLUDE\TMMINTRIN.H
D:\CPP\VC\TOOLS\MSVC\14.29.30133\INCLUDE\PMMINTRIN.H
D:\CPP\VC\TOOLS\MSVC\14.29.30133\INCLUDE\EMMINTRIN.H
D:\CPP\VC\TOOLS\MSVC\14.29.30133\INCLUDE\XMMINTRIN.H
D:\CPP\VC\TOOLS\MSVC\14.29.30133\INCLUDE\MMINTRIN.H
D:\CPP\VC\TOOLS\MSVC\14.29.30133\INCLUDE\ZMMINTRIN.H
D:\CPP\VC\TOOLS\MSVC\14.29.30133\INCLUDE\AMMINTRIN.H
D:\QT\QT5.14.2\5.14.2\MSVC2017_64\INCLUDE\QTCORE\QITERATOR.H
D:\QT\QT5.14.2\5.14.2\MSVC2017_64\INCLUDE\QTCORE\QHASHFUNCTIONS.H
D:\QT\QT5.14.2\5.14.2\MSVC2017_64\INCLUDE\QTCORE\QPAIR.H
D:\CPP\VC\TOOLS\MSVC\14.29.30133\INCLUDE\NUMERIC
D:\CPP\VC\TOOLS\MSVC\14.29.30133\INCLUDE\FUNCTIONAL
D:\CPP\VC\TOOLS\MSVC\14.29.30133\INCLUDE\TUPLE
D:\QT\QT5.14.2\5.14.2\MSVC2017_64\INCLUDE\QTCORE\QVECTOR.H
D:\QT\QT5.14.2\5.14.2\MSVC2017_64\INCLUDE\QTCORE\QCONTAINERTOOLS_IMPL.H
D:\CPP\VC\TOOLS\MSVC\14.29.30133\INCLUDE\VECTOR
D:\QT\QT5.14.2\5.14.2\MSVC2017_64\INCLUDE\QTCORE\QPOINT.H
D:\CPP\VC\TOOLS\MSVC\14.29.30133\INCLUDE\LIST
D:\QT\QT5.14.2\5.14.2\MSVC2017_64\INCLUDE\QTCORE\QBYTEARRAYLIST.H
D:\QT\QT5.14.2\5.14.2\MSVC2017_64\INCLUDE\QTCORE\QSTRINGLIST.H
D:\QT\QT5.14.2\5.14.2\MSVC2017_64\INCLUDE\QTCORE\QREGEXP.H
D:\QT\QT5.14.2\5.14.2\MSVC2017_64\INCLUDE\QTCORE\QSTRINGMATCHER.H
D:\QT\QT5.14.2\5.14.2\MSVC2017_64\INCLUDE\QTCORE\QSCOPEDPOINTER.H
D:\QT\QT5.14.2\5.14.2\MSVC2017_64\INCLUDE\QTCORE\QMETATYPE.H
D:\QT\QT5.14.2\5.14.2\MSVC2017_64\INCLUDE\QTCORE\QVARLENGTHARRAY.H
D:\QT\QT5.14.2\5.14.2\MSVC2017_64\INCLUDE\QTCORE\QCONTAINERFWD.H
D:\CPP\VC\TOOLS\MSVC\14.29.30133\INCLUDE\MAP
D:\CPP\VC\TOOLS\MSVC\14.29.30133\INCLUDE\XTREE
D:\QT\QT5.14.2\5.14.2\MSVC2017_64\INCLUDE\QTCORE\QOBJECT_IMPL.H
D:\CPP\VC\TOOLS\MSVC\14.29.30133\INCLUDE\CHRONO
D:\CPP\VC\TOOLS\MSVC\14.29.30133\INCLUDE\__MSVC_CHRONO.HPP
D:\CPP\VC\TOOLS\MSVC\14.29.30133\INCLUDE\RATIO
D:\QT\QT5.14.2\5.14.2\MSVC2017_64\INCLUDE\QTCORE\QMARGINS.H
D:\QT\QT5.14.2\5.14.2\MSVC2017_64\INCLUDE\QTGUI\QPAINTDEVICE.H
D:\QT\QT5.14.2\5.14.2\MSVC2017_64\INCLUDE\QTCORE\QRECT.H
D:\QT\QT5.14.2\5.14.2\MSVC2017_64\INCLUDE\QTCORE\QSIZE.H
D:\QT\QT5.14.2\5.14.2\MSVC2017_64\INCLUDE\QTGUI\QPALETTE.H
D:\QT\QT5.14.2\5.14.2\MSVC2017_64\INCLUDE\QTGUI\QCOLOR.H
D:\QT\QT5.14.2\5.14.2\MSVC2017_64\INCLUDE\QTGUI\QRGB.H
D:\QT\QT5.14.2\5.14.2\MSVC2017_64\INCLUDE\QTGUI\QRGBA64.H
D:\QT\QT5.14.2\5.14.2\MSVC2017_64\INCLUDE\QTGUI\QBRUSH.H
D:\QT\QT5.14.2\5.14.2\MSVC2017_64\INCLUDE\QTGUI\QMATRIX.H
D:\QT\QT5.14.2\5.14.2\MSVC2017_64\INCLUDE\QTGUI\QPOLYGON.H
D:\QT\QT5.14.2\5.14.2\MSVC2017_64\INCLUDE\QTGUI\QREGION.H
D:\QT\QT5.14.2\5.14.2\MSVC2017_64\INCLUDE\QTCORE\QDATASTREAM.H
D:\QT\QT5.14.2\5.14.2\MSVC2017_64\INCLUDE\QTCORE\QIODEVICE.H
D:\QT\QT5.14.2\5.14.2\MSVC2017_64\INCLUDE\QTCORE\QLINE.H
D:\QT\QT5.14.2\5.14.2\MSVC2017_64\INCLUDE\QTGUI\QTRANSFORM.H
D:\QT\QT5.14.2\5.14.2\MSVC2017_64\INCLUDE\QTGUI\QPAINTERPATH.H
D:\QT\QT5.14.2\5.14.2\MSVC2017_64\INCLUDE\QTGUI\QIMAGE.H
D:\QT\QT5.14.2\5.14.2\MSVC2017_64\INCLUDE\QTGUI\QPIXELFORMAT.H
D:\QT\QT5.14.2\5.14.2\MSVC2017_64\INCLUDE\QTGUI\QPIXMAP.H
D:\QT\QT5.14.2\5.14.2\MSVC2017_64\INCLUDE\QTCORE\QSHAREDPOINTER.H
D:\QT\QT5.14.2\5.14.2\MSVC2017_64\INCLUDE\QTCORE\QSHAREDDATA.H
D:\QT\QT5.14.2\5.14.2\MSVC2017_64\INCLUDE\QTCORE\QHASH.H
D:\QT\QT5.14.2\5.14.2\MSVC2017_64\INCLUDE\QTCORE\QSHAREDPOINTER_IMPL.H
D:\QT\QT5.14.2\5.14.2\MSVC2017_64\INCLUDE\QTGUI\QFONT.H
D:\QT\QT5.14.2\5.14.2\MSVC2017_64\INCLUDE\QTGUI\QFONTMETRICS.H
D:\QT\QT5.14.2\5.14.2\MSVC2017_64\INCLUDE\QTGUI\QFONTINFO.H
D:\QT\QT5.14.2\5.14.2\MSVC2017_64\INCLUDE\QTWIDGETS\QSIZEPOLICY.H
D:\QT\QT5.14.2\5.14.2\MSVC2017_64\INCLUDE\QTGUI\QCURSOR.H
D:\QT\QT5.14.2\5.14.2\MSVC2017_64\INCLUDE\QTGUI\QKEYSEQUENCE.H
D:\QT\QT5.14.2\5.14.2\MSVC2017_64\INCLUDE\QTWIDGETS\QGRIDLAYOUT
D:\QT\QT5.14.2\5.14.2\MSVC2017_64\INCLUDE\QTWIDGETS\QGRIDLAYOUT.H
D:\QT\QT5.14.2\5.14.2\MSVC2017_64\INCLUDE\QTWIDGETS\QLAYOUT.H
D:\QT\QT5.14.2\5.14.2\MSVC2017_64\INCLUDE\QTWIDGETS\QLAYOUTITEM.H
D:\QT\QT5.14.2\5.14.2\MSVC2017_64\INCLUDE\QTWIDGETS\QBOXLAYOUT.H
D:\QT\QT5.14.2\5.14.2\MSVC2017_64\INCLUDE\QTWIDGETS\QLABEL.H
D:\QT\QT5.14.2\5.14.2\MSVC2017_64\INCLUDE\QTWIDGETS\QFRAME.H
D:\QT\QT5.14.2\5.14.2\MSVC2017_64\INCLUDE\QTWIDGETS\QPUSHBUTTON.H
D:\QT\QT5.14.2\5.14.2\MSVC2017_64\INCLUDE\QTWIDGETS\QABSTRACTBUTTON.H
D:\QT\QT5.14.2\5.14.2\MSVC2017_64\INCLUDE\QTGUI\QICON.H
D:\QT\QT5.14.2\5.14.2\MSVC2017_64\INCLUDE\QTWIDGETS\QLINEEDIT.H
D:\QT\QT5.14.2\5.14.2\MSVC2017_64\INCLUDE\QTGUI\QTEXTCURSOR.H
D:\QT\QT5.14.2\5.14.2\MSVC2017_64\INCLUDE\QTGUI\QTEXTFORMAT.H
D:\QT\QT5.14.2\5.14.2\MSVC2017_64\INCLUDE\QTCORE\QVARIANT.H
D:\QT\QT5.14.2\5.14.2\MSVC2017_64\INCLUDE\QTCORE\QMAP.H
D:\QT\QT5.14.2\5.14.2\MSVC2017_64\INCLUDE\QTGUI\QPEN.H
D:\QT\QT5.14.2\5.14.2\MSVC2017_64\INCLUDE\QTGUI\QTEXTOPTION.H
D:\QT\QT5.14.2\5.14.2\MSVC2017_64\INCLUDE\QTWIDGETS\QGROUPBOX.H
D:\QT\QT5.14.2\5.14.2\MSVC2017_64\INCLUDE\QTWIDGETS\QSTACKEDWIDGET.H
^D:\PROGRAMS_KODS\WYPOZYCZALNIAPAJEK — KOPIA\WYPOZYCZALNIAPAJEK\X64\RELEASE\RCC\QRC_MAINWINDOW.CPP
^D:\PROGRAMS_KODS\WYPOZYCZALNIAPAJEK — KOPIA\WYPOZYCZALNIAPAJEK\MAINWINDOW.CPP
C:\WINDOWS\GLOBALIZATION\SORTING\SORTDEFAULT.NLS
D:\CPP\VC\TOOLS\MSVC\14.29.30133\BIN\HOSTX86\X64\1045\CLUI.DLL
C:\WINDOWS\SYSTEM32\TZRES.DLL
D:\PROGRAMS_KODS\WYPOZYCZALNIAPAJEK — KOPIA\WYPOZYCZALNIAPAJEK\MAINWINDOW.H
D:\QT\QT5.14.2\5.14.2\MSVC2017_64\INCLUDE\QTWIDGETS\QWIDGET
D:\QT\QT5.14.2\5.14.2\MSVC2017_64\INCLUDE\QTWIDGETS\QWIDGET.H
D:\QT\QT5.14.2\5.14.2\MSVC2017_64\INCLUDE\QTWIDGETS\QTWIDGETSGLOBAL.H
D:\QT\QT5.14.2\5.14.2\MSVC2017_64\INCLUDE\QTGUI\QTGUIGLOBAL.H
D:\QT\QT5.14.2\5.14.2\MSVC2017_64\INCLUDE\QTCORE\QGLOBAL.H
D:\CPP\VC\TOOLS\MSVC\14.29.30133\INCLUDE\TYPE_TRAITS
D:\CPP\VC\TOOLS\MSVC\14.29.30133\INCLUDE\YVALS_CORE.H
D:\CPP\VC\TOOLS\MSVC\14.29.30133\INCLUDE\VCRUNTIME.H
D:\CPP\VC\TOOLS\MSVC\14.29.30133\INCLUDE\SAL.H
D:\CPP\VC\TOOLS\MSVC\14.29.30133\INCLUDE\CONCURRENCYSAL.H
D:\CPP\VC\TOOLS\MSVC\14.29.30133\INCLUDE\VADEFS.H
D:\CPP\VC\TOOLS\MSVC\14.29.30133\INCLUDE\XKEYCHECK.H
D:\CPP\VC\TOOLS\MSVC\14.29.30133\INCLUDE\CSTDINT
D:\CPP\VC\TOOLS\MSVC\14.29.30133\INCLUDE\STDINT.H
D:\CPP\VC\TOOLS\MSVC\14.29.30133\INCLUDE\XSTDDEF
D:\CPP\VC\TOOLS\MSVC\14.29.30133\INCLUDE\CSTDDEF
D:\WINDOWS KITS\10\INCLUDE\10.0.18362.0\UCRT\STDDEF.H
D:\WINDOWS KITS\10\INCLUDE\10.0.18362.0\UCRT\CORECRT.H
D:\CPP\VC\TOOLS\MSVC\14.29.30133\INCLUDE\XTR1COMMON
D:\CPP\VC\TOOLS\MSVC\14.29.30133\INCLUDE\CSTDLIB
D:\WINDOWS KITS\10\INCLUDE\10.0.18362.0\UCRT\MATH.H
D:\WINDOWS KITS\10\INCLUDE\10.0.18362.0\UCRT\CORECRT_MATH.H
D:\WINDOWS KITS\10\INCLUDE\10.0.18362.0\UCRT\STDLIB.H
D:\WINDOWS KITS\10\INCLUDE\10.0.18362.0\UCRT\CORECRT_MALLOC.H
D:\WINDOWS KITS\10\INCLUDE\10.0.18362.0\UCRT\CORECRT_SEARCH.H
D:\WINDOWS KITS\10\INCLUDE\10.0.18362.0\UCRT\CORECRT_WSTDLIB.H
D:\CPP\VC\TOOLS\MSVC\14.29.30133\INCLUDE\LIMITS.H
D:\CPP\VC\TOOLS\MSVC\14.29.30133\INCLUDE\INITIALIZER_LIST
D:\CPP\VC\TOOLS\MSVC\14.29.30133\INCLUDE\UTILITY
D:\WINDOWS KITS\10\INCLUDE\10.0.18362.0\UCRT\ASSERT.H
D:\QT\QT5.14.2\5.14.2\MSVC2017_64\INCLUDE\QTCORE\QCONFIG.H
D:\QT\QT5.14.2\5.14.2\MSVC2017_64\INCLUDE\QTCORE\QTCORE-CONFIG.H
D:\QT\QT5.14.2\5.14.2\MSVC2017_64\INCLUDE\QTCORE\QSYSTEMDETECTION.H
D:\QT\QT5.14.2\5.14.2\MSVC2017_64\INCLUDE\QTCORE\QPROCESSORDETECTION.H
D:\QT\QT5.14.2\5.14.2\MSVC2017_64\INCLUDE\QTCORE\QCOMPILERDETECTION.H
D:\CPP\VC\TOOLS\MSVC\14.29.30133\INCLUDE\ALGORITHM
D:\CPP\VC\TOOLS\MSVC\14.29.30133\INCLUDE\XMEMORY
D:\CPP\VC\TOOLS\MSVC\14.29.30133\INCLUDE\LIMITS
D:\CPP\VC\TOOLS\MSVC\14.29.30133\INCLUDE\CFLOAT
D:\WINDOWS KITS\10\INCLUDE\10.0.18362.0\UCRT\FLOAT.H
D:\CPP\VC\TOOLS\MSVC\14.29.30133\INCLUDE\CLIMITS
D:\CPP\VC\TOOLS\MSVC\14.29.30133\INCLUDE\CWCHAR
D:\CPP\VC\TOOLS\MSVC\14.29.30133\INCLUDE\CSTDIO
D:\WINDOWS KITS\10\INCLUDE\10.0.18362.0\UCRT\STDIO.H
D:\WINDOWS KITS\10\INCLUDE\10.0.18362.0\UCRT\CORECRT_WSTDIO.H
D:\WINDOWS KITS\10\INCLUDE\10.0.18362.0\UCRT\CORECRT_STDIO_CONFIG.H
D:\WINDOWS KITS\10\INCLUDE\10.0.18362.0\UCRT\WCHAR.H
D:\WINDOWS KITS\10\INCLUDE\10.0.18362.0\UCRT\CORECRT_MEMCPY_S.H
D:\WINDOWS KITS\10\INCLUDE\10.0.18362.0\UCRT\ERRNO.H
D:\CPP\VC\TOOLS\MSVC\14.29.30133\INCLUDE\VCRUNTIME_STRING.H
D:\WINDOWS KITS\10\INCLUDE\10.0.18362.0\UCRT\CORECRT_WCONIO.H
D:\WINDOWS KITS\10\INCLUDE\10.0.18362.0\UCRT\CORECRT_WCTYPE.H
D:\WINDOWS KITS\10\INCLUDE\10.0.18362.0\UCRT\CORECRT_WDIRECT.H
D:\WINDOWS KITS\10\INCLUDE\10.0.18362.0\UCRT\CORECRT_WIO.H
D:\WINDOWS KITS\10\INCLUDE\10.0.18362.0\UCRT\CORECRT_SHARE.H
D:\WINDOWS KITS\10\INCLUDE\10.0.18362.0\UCRT\CORECRT_WPROCESS.H
D:\WINDOWS KITS\10\INCLUDE\10.0.18362.0\UCRT\CORECRT_WSTRING.H
D:\WINDOWS KITS\10\INCLUDE\10.0.18362.0\UCRT\CORECRT_WTIME.H
D:\WINDOWS KITS\10\INCLUDE\10.0.18362.0\UCRT\SYS\STAT.H
D:\WINDOWS KITS\10\INCLUDE\10.0.18362.0\UCRT\SYS\TYPES.H
D:\CPP\VC\TOOLS\MSVC\14.29.30133\INCLUDE\INTRIN0.H
D:\CPP\VC\TOOLS\MSVC\14.29.30133\INCLUDE\INTRIN0.INL.H
D:\CPP\VC\TOOLS\MSVC\14.29.30133\INCLUDE\ISA_AVAILABILITY.H
D:\CPP\VC\TOOLS\MSVC\14.29.30133\INCLUDE\NEW
D:\CPP\VC\TOOLS\MSVC\14.29.30133\INCLUDE\EXCEPTION
D:\CPP\VC\TOOLS\MSVC\14.29.30133\INCLUDE\YVALS.H
D:\WINDOWS KITS\10\INCLUDE\10.0.18362.0\UCRT\CRTDBG.H
D:\CPP\VC\TOOLS\MSVC\14.29.30133\INCLUDE\VCRUNTIME_NEW_DEBUG.H
D:\CPP\VC\TOOLS\MSVC\14.29.30133\INCLUDE\VCRUNTIME_NEW.H
D:\CPP\VC\TOOLS\MSVC\14.29.30133\INCLUDE\CRTDEFS.H
D:\CPP\VC\TOOLS\MSVC\14.29.30133\INCLUDE\USE_ANSI.H
D:\WINDOWS KITS\10\INCLUDE\10.0.18362.0\UCRT\MALLOC.H
D:\CPP\VC\TOOLS\MSVC\14.29.30133\INCLUDE\VCRUNTIME_EXCEPTION.H
D:\CPP\VC\TOOLS\MSVC\14.29.30133\INCLUDE\EH.H
D:\WINDOWS KITS\10\INCLUDE\10.0.18362.0\UCRT\CORECRT_TERMINATE.H
D:\CPP\VC\TOOLS\MSVC\14.29.30133\INCLUDE\XATOMIC.H
D:\CPP\VC\TOOLS\MSVC\14.29.30133\INCLUDE\XUTILITY
D:\CPP\VC\TOOLS\MSVC\14.29.30133\INCLUDE\CSTRING
D:\WINDOWS KITS\10\INCLUDE\10.0.18362.0\UCRT\STRING.H
D:\WINDOWS KITS\10\INCLUDE\10.0.18362.0\UCRT\CORECRT_MEMORY.H
D:\QT\QT5.14.2\5.14.2\MSVC2017_64\INCLUDE\QTCORE\QTYPEINFO.H
D:\QT\QT5.14.2\5.14.2\MSVC2017_64\INCLUDE\QTCORE\QSYSINFO.H
D:\QT\QT5.14.2\5.14.2\MSVC2017_64\INCLUDE\QTCORE\QLOGGING.H
D:\QT\QT5.14.2\5.14.2\MSVC2017_64\INCLUDE\QTCORE\QFLAGS.H
D:\QT\QT5.14.2\5.14.2\MSVC2017_64\INCLUDE\QTCORE\QATOMIC.H
D:\QT\QT5.14.2\5.14.2\MSVC2017_64\INCLUDE\QTCORE\QBASICATOMIC.H
D:\QT\QT5.14.2\5.14.2\MSVC2017_64\INCLUDE\QTCORE\QATOMIC_CXX11.H
D:\QT\QT5.14.2\5.14.2\MSVC2017_64\INCLUDE\QTCORE\QGENERICATOMIC.H
D:\CPP\VC\TOOLS\MSVC\14.29.30133\INCLUDE\ATOMIC
D:\CPP\VC\TOOLS\MSVC\14.29.30133\INCLUDE\XTHREADS.H
D:\CPP\VC\TOOLS\MSVC\14.29.30133\INCLUDE\XTIMEC.H
D:\CPP\VC\TOOLS\MSVC\14.29.30133\INCLUDE\CTIME
D:\WINDOWS KITS\10\INCLUDE\10.0.18362.0\UCRT\TIME.H
D:\QT\QT5.14.2\5.14.2\MSVC2017_64\INCLUDE\QTCORE\QGLOBALSTATIC.H
D:\QT\QT5.14.2\5.14.2\MSVC2017_64\INCLUDE\QTCORE\QNUMERIC.H
D:\QT\QT5.14.2\5.14.2\MSVC2017_64\INCLUDE\QTCORE\QVERSIONTAGGING.H
D:\QT\QT5.14.2\5.14.2\MSVC2017_64\INCLUDE\QTGUI\QTGUI-CONFIG.H
D:\QT\QT5.14.2\5.14.2\MSVC2017_64\INCLUDE\QTWIDGETS\QTWIDGETS-CONFIG.H
D:\QT\QT5.14.2\5.14.2\MSVC2017_64\INCLUDE\QTGUI\QWINDOWDEFS.H
D:\QT\QT5.14.2\5.14.2\MSVC2017_64\INCLUDE\QTCORE\QOBJECTDEFS.H
D:\QT\QT5.14.2\5.14.2\MSVC2017_64\INCLUDE\QTCORE\QNAMESPACE.H
D:\QT\QT5.14.2\5.14.2\MSVC2017_64\INCLUDE\QTCORE\QOBJECTDEFS_IMPL.H
D:\QT\QT5.14.2\5.14.2\MSVC2017_64\INCLUDE\QTGUI\QWINDOWDEFS_WIN.H
D:\QT\QT5.14.2\5.14.2\MSVC2017_64\INCLUDE\QTCORE\QOBJECT.H
D:\QT\QT5.14.2\5.14.2\MSVC2017_64\INCLUDE\QTCORE\QSTRING.H
D:\QT\QT5.14.2\5.14.2\MSVC2017_64\INCLUDE\QTCORE\QCHAR.H
D:\QT\QT5.14.2\5.14.2\MSVC2017_64\INCLUDE\QTCORE\QBYTEARRAY.H
D:\QT\QT5.14.2\5.14.2\MSVC2017_64\INCLUDE\QTCORE\QREFCOUNT.H
D:\QT\QT5.14.2\5.14.2\MSVC2017_64\INCLUDE\QTCORE\QARRAYDATA.H
D:\CPP\VC\TOOLS\MSVC\14.29.30133\INCLUDE\STDARG.H
D:\CPP\VC\TOOLS\MSVC\14.29.30133\INCLUDE\STRING
D:\CPP\VC\TOOLS\MSVC\14.29.30133\INCLUDE\XSTRING
D:\CPP\VC\TOOLS\MSVC\14.29.30133\INCLUDE\IOSFWD
D:\CPP\VC\TOOLS\MSVC\14.29.30133\INCLUDE\CCTYPE
D:\WINDOWS KITS\10\INCLUDE\10.0.18362.0\UCRT\CTYPE.H
D:\CPP\VC\TOOLS\MSVC\14.29.30133\INCLUDE\ITERATOR
D:\QT\QT5.14.2\5.14.2\MSVC2017_64\INCLUDE\QTCORE\QSTRINGLITERAL.H
D:\QT\QT5.14.2\5.14.2\MSVC2017_64\INCLUDE\QTCORE\QSTRINGALGORITHMS.H
D:\QT\QT5.14.2\5.14.2\MSVC2017_64\INCLUDE\QTCORE\QSTRINGVIEW.H
D:\QT\QT5.14.2\5.14.2\MSVC2017_64\INCLUDE\QTCORE\QLIST.H
D:\QT\QT5.14.2\5.14.2\MSVC2017_64\INCLUDE\QTCORE\QALGORITHMS.H
D:\CPP\VC\TOOLS\MSVC\14.29.30133\INCLUDE\INTRIN.H
D:\CPP\VC\TOOLS\MSVC\14.29.30133\INCLUDE\SETJMP.H
D:\CPP\VC\TOOLS\MSVC\14.29.30133\INCLUDE\IMMINTRIN.H
D:\CPP\VC\TOOLS\MSVC\14.29.30133\INCLUDE\WMMINTRIN.H
D:\CPP\VC\TOOLS\MSVC\14.29.30133\INCLUDE\NMMINTRIN.H
D:\CPP\VC\TOOLS\MSVC\14.29.30133\INCLUDE\SMMINTRIN.H
D:\CPP\VC\TOOLS\MSVC\14.29.30133\INCLUDE\TMMINTRIN.H
D:\CPP\VC\TOOLS\MSVC\14.29.30133\INCLUDE\PMMINTRIN.H
D:\CPP\VC\TOOLS\MSVC\14.29.30133\INCLUDE\EMMINTRIN.H
D:\CPP\VC\TOOLS\MSVC\14.29.30133\INCLUDE\XMMINTRIN.H
D:\CPP\VC\TOOLS\MSVC\14.29.30133\INCLUDE\MMINTRIN.H
D:\CPP\VC\TOOLS\MSVC\14.29.30133\INCLUDE\ZMMINTRIN.H
D:\CPP\VC\TOOLS\MSVC\14.29.30133\INCLUDE\AMMINTRIN.H
D:\QT\QT5.14.2\5.14.2\MSVC2017_64\INCLUDE\QTCORE\QITERATOR.H
D:\QT\QT5.14.2\5.14.2\MSVC2017_64\INCLUDE\QTCORE\QHASHFUNCTIONS.H
D:\QT\QT5.14.2\5.14.2\MSVC2017_64\INCLUDE\QTCORE\QPAIR.H
D:\CPP\VC\TOOLS\MSVC\14.29.30133\INCLUDE\NUMERIC
D:\CPP\VC\TOOLS\MSVC\14.29.30133\INCLUDE\FUNCTIONAL
D:\CPP\VC\TOOLS\MSVC\14.29.30133\INCLUDE\TUPLE
D:\CPP\VC\TOOLS\MSVC\14.29.30133\INCLUDE\TYPEINFO
D:\CPP\VC\TOOLS\MSVC\14.29.30133\INCLUDE\VCRUNTIME_TYPEINFO.H
D:\QT\QT5.14.2\5.14.2\MSVC2017_64\INCLUDE\QTCORE\QVECTOR.H
D:\QT\QT5.14.2\5.14.2\MSVC2017_64\INCLUDE\QTCORE\QCONTAINERTOOLS_IMPL.H
D:\CPP\VC\TOOLS\MSVC\14.29.30133\INCLUDE\VECTOR
D:\QT\QT5.14.2\5.14.2\MSVC2017_64\INCLUDE\QTCORE\QPOINT.H
D:\CPP\VC\TOOLS\MSVC\14.29.30133\INCLUDE\LIST
D:\QT\QT5.14.2\5.14.2\MSVC2017_64\INCLUDE\QTCORE\QBYTEARRAYLIST.H
D:\QT\QT5.14.2\5.14.2\MSVC2017_64\INCLUDE\QTCORE\QSTRINGLIST.H
D:\QT\QT5.14.2\5.14.2\MSVC2017_64\INCLUDE\QTCORE\QREGEXP.H
D:\QT\QT5.14.2\5.14.2\MSVC2017_64\INCLUDE\QTCORE\QSTRINGMATCHER.H
D:\QT\QT5.14.2\5.14.2\MSVC2017_64\INCLUDE\QTCORE\QSCOPEDPOINTER.H
D:\QT\QT5.14.2\5.14.2\MSVC2017_64\INCLUDE\QTCORE\QMETATYPE.H
D:\QT\QT5.14.2\5.14.2\MSVC2017_64\INCLUDE\QTCORE\QVARLENGTHARRAY.H
D:\QT\QT5.14.2\5.14.2\MSVC2017_64\INCLUDE\QTCORE\QCONTAINERFWD.H
D:\CPP\VC\TOOLS\MSVC\14.29.30133\INCLUDE\MAP
D:\CPP\VC\TOOLS\MSVC\14.29.30133\INCLUDE\XTREE
D:\QT\QT5.14.2\5.14.2\MSVC2017_64\INCLUDE\QTCORE\QOBJECT_IMPL.H
D:\CPP\VC\TOOLS\MSVC\14.29.30133\INCLUDE\CHRONO
D:\CPP\VC\TOOLS\MSVC\14.29.30133\INCLUDE\__MSVC_CHRONO.HPP
D:\CPP\VC\TOOLS\MSVC\14.29.30133\INCLUDE\RATIO
D:\QT\QT5.14.2\5.14.2\MSVC2017_64\INCLUDE\QTCORE\QMARGINS.H
D:\QT\QT5.14.2\5.14.2\MSVC2017_64\INCLUDE\QTGUI\QPAINTDEVICE.H
D:\QT\QT5.14.2\5.14.2\MSVC2017_64\INCLUDE\QTCORE\QRECT.H
D:\QT\QT5.14.2\5.14.2\MSVC2017_64\INCLUDE\QTCORE\QSIZE.H
D:\QT\QT5.14.2\5.14.2\MSVC2017_64\INCLUDE\QTGUI\QPALETTE.H
D:\QT\QT5.14.2\5.14.2\MSVC2017_64\INCLUDE\QTGUI\QCOLOR.H
D:\QT\QT5.14.2\5.14.2\MSVC2017_64\INCLUDE\QTGUI\QRGB.H
D:\QT\QT5.14.2\5.14.2\MSVC2017_64\INCLUDE\QTGUI\QRGBA64.H
D:\QT\QT5.14.2\5.14.2\MSVC2017_64\INCLUDE\QTGUI\QBRUSH.H
D:\QT\QT5.14.2\5.14.2\MSVC2017_64\INCLUDE\QTGUI\QMATRIX.H
D:\QT\QT5.14.2\5.14.2\MSVC2017_64\INCLUDE\QTGUI\QPOLYGON.H
D:\QT\QT5.14.2\5.14.2\MSVC2017_64\INCLUDE\QTGUI\QREGION.H
D:\QT\QT5.14.2\5.14.2\MSVC2017_64\INCLUDE\QTCORE\QDATASTREAM.H
D:\QT\QT5.14.2\5.14.2\MSVC2017_64\INCLUDE\QTCORE\QIODEVICE.H
D:\QT\QT5.14.2\5.14.2\MSVC2017_64\INCLUDE\QTCORE\QLINE.H
D:\QT\QT5.14.2\5.14.2\MSVC2017_64\INCLUDE\QTGUI\QTRANSFORM.H
D:\QT\QT5.14.2\5.14.2\MSVC2017_64\INCLUDE\QTGUI\QPAINTERPATH.H
D:\QT\QT5.14.2\5.14.2\MSVC2017_64\INCLUDE\QTGUI\QIMAGE.H
D:\QT\QT5.14.2\5.14.2\MSVC2017_64\INCLUDE\QTGUI\QPIXELFORMAT.H
D:\QT\QT5.14.2\5.14.2\MSVC2017_64\INCLUDE\QTGUI\QPIXMAP.H
D:\QT\QT5.14.2\5.14.2\MSVC2017_64\INCLUDE\QTCORE\QSHAREDPOINTER.H
D:\QT\QT5.14.2\5.14.2\MSVC2017_64\INCLUDE\QTCORE\QSHAREDDATA.H
D:\QT\QT5.14.2\5.14.2\MSVC2017_64\INCLUDE\QTCORE\QHASH.H
D:\QT\QT5.14.2\5.14.2\MSVC2017_64\INCLUDE\QTCORE\QSHAREDPOINTER_IMPL.H
D:\CPP\VC\TOOLS\MSVC\14.29.30133\INCLUDE\MEMORY
D:\QT\QT5.14.2\5.14.2\MSVC2017_64\INCLUDE\QTGUI\QFONT.H
D:\QT\QT5.14.2\5.14.2\MSVC2017_64\INCLUDE\QTGUI\QFONTMETRICS.H
D:\QT\QT5.14.2\5.14.2\MSVC2017_64\INCLUDE\QTGUI\QFONTINFO.H
D:\QT\QT5.14.2\5.14.2\MSVC2017_64\INCLUDE\QTWIDGETS\QSIZEPOLICY.H
D:\QT\QT5.14.2\5.14.2\MSVC2017_64\INCLUDE\QTGUI\QCURSOR.H
D:\QT\QT5.14.2\5.14.2\MSVC2017_64\INCLUDE\QTGUI\QKEYSEQUENCE.H
D:\QT\QT5.14.2\5.14.2\MSVC2017_64\INCLUDE\QTWIDGETS\QGRIDLAYOUT
D:\QT\QT5.14.2\5.14.2\MSVC2017_64\INCLUDE\QTWIDGETS\QGRIDLAYOUT.H
D:\QT\QT5.14.2\5.14.2\MSVC2017_64\INCLUDE\QTWIDGETS\QLAYOUT.H
D:\QT\QT5.14.2\5.14.2\MSVC2017_64\INCLUDE\QTWIDGETS\QLAYOUTITEM.H
D:\QT\QT5.14.2\5.14.2\MSVC2017_64\INCLUDE\QTWIDGETS\QBOXLAYOUT.H
D:\QT\QT5.14.2\5.14.2\MSVC2017_64\INCLUDE\QTWIDGETS\QLABEL.H
D:\QT\QT5.14.2\5.14.2\MSVC2017_64\INCLUDE\QTWIDGETS\QFRAME.H
D:\QT\QT5.14.2\5.14.2\MSVC2017_64\INCLUDE\QTWIDGETS\QPUSHBUTTON.H
D:\QT\QT5.14.2\5.14.2\MSVC2017_64\INCLUDE\QTWIDGETS\QABSTRACTBUTTON.H
D:\QT\QT5.14.2\5.14.2\MSVC2017_64\INCLUDE\QTGUI\QICON.H
D:\QT\QT5.14.2\5.14.2\MSVC2017_64\INCLUDE\QTWIDGETS\QLINEEDIT.H
D:\QT\QT5.14.2\5.14.2\MSVC2017_64\INCLUDE\QTGUI\QTEXTCURSOR.H
D:\QT\QT5.14.2\5.14.2\MSVC2017_64\INCLUDE\QTGUI\QTEXTFORMAT.H
D:\QT\QT5.14.2\5.14.2\MSVC2017_64\INCLUDE\QTCORE\QVARIANT.H
D:\QT\QT5.14.2\5.14.2\MSVC2017_64\INCLUDE\QTCORE\QMAP.H
D:\QT\QT5.14.2\5.14.2\MSVC2017_64\INCLUDE\QTGUI\QPEN.H
D:\QT\QT5.14.2\5.14.2\MSVC2017_64\INCLUDE\QTGUI\QTEXTOPTION.H
D:\QT\QT5.14.2\5.14.2\MSVC2017_64\INCLUDE\QTWIDGETS\QGROUPBOX.H
D:\QT\QT5.14.2\5.14.2\MSVC2017_64\INCLUDE\QTWIDGETS\QSTACKEDWIDGET.H
D:\PROGRAMS_KODS\WYPOZYCZALNIAPAJEK — KOPIA\WYPOZYCZALNIAPAJEK\PERSON_INFO_GUI.H
