^D:\QTPROJEKTY\RENTAL\WYPOZYCZALNIAPAJEK\DATA_INTERFACE.CPP
/c /IX64\DEBUG\UIC /IX64\DEBUG\MOC /I"D:\QTPROJEKTY\WYPOZYCZALNIAPAJEK ? KOPIA\WYPOZYCZALNIAPAJEK\X64\DEBUG\QMAKE\TEMP" /ID:\QT\QT5.14.2\5.14.2\MSVC2017_64\INCLUDE /ID:\QT\QT5.14.2\5.14.2\MSVC2017_64\INCLUDE\QTWIDGETS /ID:\QT\QT5.14.2\5.14.2\MSVC2017_64\INCLUDE\QTGUI /ID:\QT\QT5.14.2\5.14.2\MSVC2017_64\INCLUDE\QTANGLE /ID:\QT\QT5.14.2\5.14.2\MSVC2017_64\INCLUDE\QTCORE /I"D:\QTPROJEKTY\WYPOZYCZALNIAPAJEK ? KOPIA\WYPOZYCZALNIAPAJEK\X64\DEBUG\QMAKE\TEMP" /I/INCLUDE /I"D:\QT\QT5.14.2\5.14.2\MSVC2017_64\MKSPECS\WIN32-MSVC" /IX64\DEBUG\MOC /IX64\DEBUG\UIC /Zi /nologo /W1 /WX- /diagnostics:column /Od /D _WINDOWS /D UNICODE /D _UNICODE /D WIN32 /D _ENABLE_EXTENDED_ALIGNED_STORAGE /D WIN64 /D QT_WIDGETS_LIB /D QT_GUI_LIB /D QT_CORE_LIB /Gm- /EHsc /MDd /GS /fp:precise /Zc:wchar_t /Zc:forScope /Zc:inline /Fo"X64\DEBUG\\" /Fd"X64\DEBUG\VC142.PDB" /external:W1 /Gd /TP /FC -Zc:rvalueCast -Zc:strictStrings -Zc:throwingNew -Zc:referenceBinding -Zc:__cplusplus D:\QTPROJEKTY\RENTAL\WYPOZYCZALNIAPAJEK\DATA_INTERFACE.CPP
^D:\QTPROJEKTY\RENTAL\WYPOZYCZALNIAPAJEK\GAME.CPP
/c /IX64\DEBUG\UIC /IX64\DEBUG\MOC /I"D:\QTPROJEKTY\WYPOZYCZALNIAPAJEK ? KOPIA\WYPOZYCZALNIAPAJEK\X64\DEBUG\QMAKE\TEMP" /ID:\QT\QT5.14.2\5.14.2\MSVC2017_64\INCLUDE /ID:\QT\QT5.14.2\5.14.2\MSVC2017_64\INCLUDE\QTWIDGETS /ID:\QT\QT5.14.2\5.14.2\MSVC2017_64\INCLUDE\QTGUI /ID:\QT\QT5.14.2\5.14.2\MSVC2017_64\INCLUDE\QTANGLE /ID:\QT\QT5.14.2\5.14.2\MSVC2017_64\INCLUDE\QTCORE /I"D:\QTPROJEKTY\WYPOZYCZALNIAPAJEK ? KOPIA\WYPOZYCZALNIAPAJEK\X64\DEBUG\QMAKE\TEMP" /I/INCLUDE /I"D:\QT\QT5.14.2\5.14.2\MSVC2017_64\MKSPECS\WIN32-MSVC" /IX64\DEBUG\MOC /IX64\DEBUG\UIC /Zi /nologo /W1 /WX- /diagnostics:column /Od /D _WINDOWS /D UNICODE /D _UNICODE /D WIN32 /D _ENABLE_EXTENDED_ALIGNED_STORAGE /D WIN64 /D QT_WIDGETS_LIB /D QT_GUI_LIB /D QT_CORE_LIB /Gm- /EHsc /MDd /GS /fp:precise /Zc:wchar_t /Zc:forScope /Zc:inline /Fo"X64\DEBUG\\" /Fd"X64\DEBUG\VC142.PDB" /external:W1 /Gd /TP /FC -Zc:rvalueCast -Zc:strictStrings -Zc:throwingNew -Zc:referenceBinding -Zc:__cplusplus D:\QTPROJEKTY\RENTAL\WYPOZYCZALNIAPAJEK\GAME.CPP
^D:\QTPROJEKTY\RENTAL\WYPOZYCZALNIAPAJEK\GUI_SETTINGS.CPP
/c /IX64\DEBUG\UIC /IX64\DEBUG\MOC /I"D:\QTPROJEKTY\WYPOZYCZALNIAPAJEK ? KOPIA\WYPOZYCZALNIAPAJEK\X64\DEBUG\QMAKE\TEMP" /ID:\QT\QT5.14.2\5.14.2\MSVC2017_64\INCLUDE /ID:\QT\QT5.14.2\5.14.2\MSVC2017_64\INCLUDE\QTWIDGETS /ID:\QT\QT5.14.2\5.14.2\MSVC2017_64\INCLUDE\QTGUI /ID:\QT\QT5.14.2\5.14.2\MSVC2017_64\INCLUDE\QTANGLE /ID:\QT\QT5.14.2\5.14.2\MSVC2017_64\INCLUDE\QTCORE /I"D:\QTPROJEKTY\WYPOZYCZALNIAPAJEK ? KOPIA\WYPOZYCZALNIAPAJEK\X64\DEBUG\QMAKE\TEMP" /I/INCLUDE /I"D:\QT\QT5.14.2\5.14.2\MSVC2017_64\MKSPECS\WIN32-MSVC" /IX64\DEBUG\MOC /IX64\DEBUG\UIC /Zi /nologo /W1 /WX- /diagnostics:column /Od /D _WINDOWS /D UNICODE /D _UNICODE /D WIN32 /D _ENABLE_EXTENDED_ALIGNED_STORAGE /D WIN64 /D QT_WIDGETS_LIB /D QT_GUI_LIB /D QT_CORE_LIB /Gm- /EHsc /MDd /GS /fp:precise /Zc:wchar_t /Zc:forScope /Zc:inline /Fo"X64\DEBUG\\" /Fd"X64\DEBUG\VC142.PDB" /external:W1 /Gd /TP /FC -Zc:rvalueCast -Zc:strictStrings -Zc:throwingNew -Zc:referenceBinding -Zc:__cplusplus D:\QTPROJEKTY\RENTAL\WYPOZYCZALNIAPAJEK\GUI_SETTINGS.CPP
^D:\QTPROJEKTY\RENTAL\WYPOZYCZALNIAPAJEK\NAVIGATION_GUI.CPP
/c /IX64\DEBUG\UIC /IX64\DEBUG\MOC /I"D:\QTPROJEKTY\WYPOZYCZALNIAPAJEK ? KOPIA\WYPOZYCZALNIAPAJEK\X64\DEBUG\QMAKE\TEMP" /ID:\QT\QT5.14.2\5.14.2\MSVC2017_64\INCLUDE /ID:\QT\QT5.14.2\5.14.2\MSVC2017_64\INCLUDE\QTWIDGETS /ID:\QT\QT5.14.2\5.14.2\MSVC2017_64\INCLUDE\QTGUI /ID:\QT\QT5.14.2\5.14.2\MSVC2017_64\INCLUDE\QTANGLE /ID:\QT\QT5.14.2\5.14.2\MSVC2017_64\INCLUDE\QTCORE /I"D:\QTPROJEKTY\WYPOZYCZALNIAPAJEK ? KOPIA\WYPOZYCZALNIAPAJEK\X64\DEBUG\QMAKE\TEMP" /I/INCLUDE /I"D:\QT\QT5.14.2\5.14.2\MSVC2017_64\MKSPECS\WIN32-MSVC" /IX64\DEBUG\MOC /IX64\DEBUG\UIC /Zi /nologo /W1 /WX- /diagnostics:column /Od /D _WINDOWS /D UNICODE /D _UNICODE /D WIN32 /D _ENABLE_EXTENDED_ALIGNED_STORAGE /D WIN64 /D QT_WIDGETS_LIB /D QT_GUI_LIB /D QT_CORE_LIB /Gm- /EHsc /MDd /GS /fp:precise /Zc:wchar_t /Zc:forScope /Zc:inline /Fo"X64\DEBUG\\" /Fd"X64\DEBUG\VC142.PDB" /external:W1 /Gd /TP /FC -Zc:rvalueCast -Zc:strictStrings -Zc:throwingNew -Zc:referenceBinding -Zc:__cplusplus D:\QTPROJEKTY\RENTAL\WYPOZYCZALNIAPAJEK\NAVIGATION_GUI.CPP
^D:\QTPROJEKTY\RENTAL\WYPOZYCZALNIAPAJEK\PERSON.CPP
/c /IX64\DEBUG\UIC /IX64\DEBUG\MOC /I"D:\QTPROJEKTY\WYPOZYCZALNIAPAJEK ? KOPIA\WYPOZYCZALNIAPAJEK\X64\DEBUG\QMAKE\TEMP" /ID:\QT\QT5.14.2\5.14.2\MSVC2017_64\INCLUDE /ID:\QT\QT5.14.2\5.14.2\MSVC2017_64\INCLUDE\QTWIDGETS /ID:\QT\QT5.14.2\5.14.2\MSVC2017_64\INCLUDE\QTGUI /ID:\QT\QT5.14.2\5.14.2\MSVC2017_64\INCLUDE\QTANGLE /ID:\QT\QT5.14.2\5.14.2\MSVC2017_64\INCLUDE\QTCORE /I"D:\QTPROJEKTY\WYPOZYCZALNIAPAJEK ? KOPIA\WYPOZYCZALNIAPAJEK\X64\DEBUG\QMAKE\TEMP" /I/INCLUDE /I"D:\QT\QT5.14.2\5.14.2\MSVC2017_64\MKSPECS\WIN32-MSVC" /IX64\DEBUG\MOC /IX64\DEBUG\UIC /Zi /nologo /W1 /WX- /diagnostics:column /Od /D _WINDOWS /D UNICODE /D _UNICODE /D WIN32 /D _ENABLE_EXTENDED_ALIGNED_STORAGE /D WIN64 /D QT_WIDGETS_LIB /D QT_GUI_LIB /D QT_CORE_LIB /Gm- /EHsc /MDd /GS /fp:precise /Zc:wchar_t /Zc:forScope /Zc:inline /Fo"X64\DEBUG\\" /Fd"X64\DEBUG\VC142.PDB" /external:W1 /Gd /TP /FC -Zc:rvalueCast -Zc:strictStrings -Zc:throwingNew -Zc:referenceBinding -Zc:__cplusplus D:\QTPROJEKTY\RENTAL\WYPOZYCZALNIAPAJEK\PERSON.CPP
^D:\QTPROJEKTY\RENTAL\WYPOZYCZALNIAPAJEK\PERSON_GAME_GUI.CPP
/c /IX64\DEBUG\UIC /IX64\DEBUG\MOC /I"D:\QTPROJEKTY\WYPOZYCZALNIAPAJEK ? KOPIA\WYPOZYCZALNIAPAJEK\X64\DEBUG\QMAKE\TEMP" /ID:\QT\QT5.14.2\5.14.2\MSVC2017_64\INCLUDE /ID:\QT\QT5.14.2\5.14.2\MSVC2017_64\INCLUDE\QTWIDGETS /ID:\QT\QT5.14.2\5.14.2\MSVC2017_64\INCLUDE\QTGUI /ID:\QT\QT5.14.2\5.14.2\MSVC2017_64\INCLUDE\QTANGLE /ID:\QT\QT5.14.2\5.14.2\MSVC2017_64\INCLUDE\QTCORE /I"D:\QTPROJEKTY\WYPOZYCZALNIAPAJEK ? KOPIA\WYPOZYCZALNIAPAJEK\X64\DEBUG\QMAKE\TEMP" /I/INCLUDE /I"D:\QT\QT5.14.2\5.14.2\MSVC2017_64\MKSPECS\WIN32-MSVC" /IX64\DEBUG\MOC /IX64\DEBUG\UIC /Zi /nologo /W1 /WX- /diagnostics:column /Od /D _WINDOWS /D UNICODE /D _UNICODE /D WIN32 /D _ENABLE_EXTENDED_ALIGNED_STORAGE /D WIN64 /D QT_WIDGETS_LIB /D QT_GUI_LIB /D QT_CORE_LIB /Gm- /EHsc /MDd /GS /fp:precise /Zc:wchar_t /Zc:forScope /Zc:inline /Fo"X64\DEBUG\\" /Fd"X64\DEBUG\VC142.PDB" /external:W1 /Gd /TP /FC -Zc:rvalueCast -Zc:strictStrings -Zc:throwingNew -Zc:referenceBinding -Zc:__cplusplus D:\QTPROJEKTY\RENTAL\WYPOZYCZALNIAPAJEK\PERSON_GAME_GUI.CPP
^D:\QTPROJEKTY\RENTAL\WYPOZYCZALNIAPAJEK\PERSON_INFO_GUI.CPP
/c /IX64\DEBUG\UIC /IX64\DEBUG\MOC /I"D:\QTPROJEKTY\WYPOZYCZALNIAPAJEK ? KOPIA\WYPOZYCZALNIAPAJEK\X64\DEBUG\QMAKE\TEMP" /ID:\QT\QT5.14.2\5.14.2\MSVC2017_64\INCLUDE /ID:\QT\QT5.14.2\5.14.2\MSVC2017_64\INCLUDE\QTWIDGETS /ID:\QT\QT5.14.2\5.14.2\MSVC2017_64\INCLUDE\QTGUI /ID:\QT\QT5.14.2\5.14.2\MSVC2017_64\INCLUDE\QTANGLE /ID:\QT\QT5.14.2\5.14.2\MSVC2017_64\INCLUDE\QTCORE /I"D:\QTPROJEKTY\WYPOZYCZALNIAPAJEK ? KOPIA\WYPOZYCZALNIAPAJEK\X64\DEBUG\QMAKE\TEMP" /I/INCLUDE /I"D:\QT\QT5.14.2\5.14.2\MSVC2017_64\MKSPECS\WIN32-MSVC" /IX64\DEBUG\MOC /IX64\DEBUG\UIC /Zi /nologo /W1 /WX- /diagnostics:column /Od /D _WINDOWS /D UNICODE /D _UNICODE /D WIN32 /D _ENABLE_EXTENDED_ALIGNED_STORAGE /D WIN64 /D QT_WIDGETS_LIB /D QT_GUI_LIB /D QT_CORE_LIB /Gm- /EHsc /MDd /GS /fp:precise /Zc:wchar_t /Zc:forScope /Zc:inline /Fo"X64\DEBUG\\" /Fd"X64\DEBUG\VC142.PDB" /external:W1 /Gd /TP /FC -Zc:rvalueCast -Zc:strictStrings -Zc:throwingNew -Zc:referenceBinding -Zc:__cplusplus D:\QTPROJEKTY\RENTAL\WYPOZYCZALNIAPAJEK\PERSON_INFO_GUI.CPP
^D:\QTPROJEKTY\RENTAL\WYPOZYCZALNIAPAJEK\RENTAL_GUI.CPP
/c /IX64\DEBUG\UIC /IX64\DEBUG\MOC /I"D:\QTPROJEKTY\WYPOZYCZALNIAPAJEK ? KOPIA\WYPOZYCZALNIAPAJEK\X64\DEBUG\QMAKE\TEMP" /ID:\QT\QT5.14.2\5.14.2\MSVC2017_64\INCLUDE /ID:\QT\QT5.14.2\5.14.2\MSVC2017_64\INCLUDE\QTWIDGETS /ID:\QT\QT5.14.2\5.14.2\MSVC2017_64\INCLUDE\QTGUI /ID:\QT\QT5.14.2\5.14.2\MSVC2017_64\INCLUDE\QTANGLE /ID:\QT\QT5.14.2\5.14.2\MSVC2017_64\INCLUDE\QTCORE /I"D:\QTPROJEKTY\WYPOZYCZALNIAPAJEK ? KOPIA\WYPOZYCZALNIAPAJEK\X64\DEBUG\QMAKE\TEMP" /I/INCLUDE /I"D:\QT\QT5.14.2\5.14.2\MSVC2017_64\MKSPECS\WIN32-MSVC" /IX64\DEBUG\MOC /IX64\DEBUG\UIC /Zi /nologo /W1 /WX- /diagnostics:column /Od /D _WINDOWS /D UNICODE /D _UNICODE /D WIN32 /D _ENABLE_EXTENDED_ALIGNED_STORAGE /D WIN64 /D QT_WIDGETS_LIB /D QT_GUI_LIB /D QT_CORE_LIB /Gm- /EHsc /MDd /GS /fp:precise /Zc:wchar_t /Zc:forScope /Zc:inline /Fo"X64\DEBUG\\" /Fd"X64\DEBUG\VC142.PDB" /external:W1 /Gd /TP /FC -Zc:rvalueCast -Zc:strictStrings -Zc:throwingNew -Zc:referenceBinding -Zc:__cplusplus D:\QTPROJEKTY\RENTAL\WYPOZYCZALNIAPAJEK\RENTAL_GUI.CPP
^D:\QTPROJEKTY\RENTAL\WYPOZYCZALNIAPAJEK\RENTED_GAMES_GUI.CPP
/c /IX64\DEBUG\UIC /IX64\DEBUG\MOC /I"D:\QTPROJEKTY\WYPOZYCZALNIAPAJEK ? KOPIA\WYPOZYCZALNIAPAJEK\X64\DEBUG\QMAKE\TEMP" /ID:\QT\QT5.14.2\5.14.2\MSVC2017_64\INCLUDE /ID:\QT\QT5.14.2\5.14.2\MSVC2017_64\INCLUDE\QTWIDGETS /ID:\QT\QT5.14.2\5.14.2\MSVC2017_64\INCLUDE\QTGUI /ID:\QT\QT5.14.2\5.14.2\MSVC2017_64\INCLUDE\QTANGLE /ID:\QT\QT5.14.2\5.14.2\MSVC2017_64\INCLUDE\QTCORE /I"D:\QTPROJEKTY\WYPOZYCZALNIAPAJEK ? KOPIA\WYPOZYCZALNIAPAJEK\X64\DEBUG\QMAKE\TEMP" /I/INCLUDE /I"D:\QT\QT5.14.2\5.14.2\MSVC2017_64\MKSPECS\WIN32-MSVC" /IX64\DEBUG\MOC /IX64\DEBUG\UIC /Zi /nologo /W1 /WX- /diagnostics:column /Od /D _WINDOWS /D UNICODE /D _UNICODE /D WIN32 /D _ENABLE_EXTENDED_ALIGNED_STORAGE /D WIN64 /D QT_WIDGETS_LIB /D QT_GUI_LIB /D QT_CORE_LIB /Gm- /EHsc /MDd /GS /fp:precise /Zc:wchar_t /Zc:forScope /Zc:inline /Fo"X64\DEBUG\\" /Fd"X64\DEBUG\VC142.PDB" /external:W1 /Gd /TP /FC -Zc:rvalueCast -Zc:strictStrings -Zc:throwingNew -Zc:referenceBinding -Zc:__cplusplus D:\QTPROJEKTY\RENTAL\WYPOZYCZALNIAPAJEK\RENTED_GAMES_GUI.CPP
^D:\QTPROJEKTY\RENTAL\WYPOZYCZALNIAPAJEK\MAINWINDOW.CPP
/c /IX64\DEBUG\UIC /IX64\DEBUG\MOC /I"D:\QTPROJEKTY\WYPOZYCZALNIAPAJEK ? KOPIA\WYPOZYCZALNIAPAJEK\X64\DEBUG\QMAKE\TEMP" /ID:\QT\QT5.14.2\5.14.2\MSVC2017_64\INCLUDE /ID:\QT\QT5.14.2\5.14.2\MSVC2017_64\INCLUDE\QTWIDGETS /ID:\QT\QT5.14.2\5.14.2\MSVC2017_64\INCLUDE\QTGUI /ID:\QT\QT5.14.2\5.14.2\MSVC2017_64\INCLUDE\QTANGLE /ID:\QT\QT5.14.2\5.14.2\MSVC2017_64\INCLUDE\QTCORE /I"D:\QTPROJEKTY\WYPOZYCZALNIAPAJEK ? KOPIA\WYPOZYCZALNIAPAJEK\X64\DEBUG\QMAKE\TEMP" /I/INCLUDE /I"D:\QT\QT5.14.2\5.14.2\MSVC2017_64\MKSPECS\WIN32-MSVC" /IX64\DEBUG\MOC /IX64\DEBUG\UIC /Zi /nologo /W1 /WX- /diagnostics:column /Od /D _WINDOWS /D UNICODE /D _UNICODE /D WIN32 /D _ENABLE_EXTENDED_ALIGNED_STORAGE /D WIN64 /D QT_WIDGETS_LIB /D QT_GUI_LIB /D QT_CORE_LIB /Gm- /EHsc /MDd /GS /fp:precise /Zc:wchar_t /Zc:forScope /Zc:inline /Fo"X64\DEBUG\\" /Fd"X64\DEBUG\VC142.PDB" /external:W1 /Gd /TP /FC -Zc:rvalueCast -Zc:strictStrings -Zc:throwingNew -Zc:referenceBinding -Zc:__cplusplus D:\QTPROJEKTY\RENTAL\WYPOZYCZALNIAPAJEK\MAINWINDOW.CPP
^D:\QTPROJEKTY\RENTAL\WYPOZYCZALNIAPAJEK\MAIN.CPP
/c /IX64\DEBUG\UIC /IX64\DEBUG\MOC /I"D:\QTPROJEKTY\WYPOZYCZALNIAPAJEK ? KOPIA\WYPOZYCZALNIAPAJEK\X64\DEBUG\QMAKE\TEMP" /ID:\QT\QT5.14.2\5.14.2\MSVC2017_64\INCLUDE /ID:\QT\QT5.14.2\5.14.2\MSVC2017_64\INCLUDE\QTWIDGETS /ID:\QT\QT5.14.2\5.14.2\MSVC2017_64\INCLUDE\QTGUI /ID:\QT\QT5.14.2\5.14.2\MSVC2017_64\INCLUDE\QTANGLE /ID:\QT\QT5.14.2\5.14.2\MSVC2017_64\INCLUDE\QTCORE /I"D:\QTPROJEKTY\WYPOZYCZALNIAPAJEK ? KOPIA\WYPOZYCZALNIAPAJEK\X64\DEBUG\QMAKE\TEMP" /I/INCLUDE /I"D:\QT\QT5.14.2\5.14.2\MSVC2017_64\MKSPECS\WIN32-MSVC" /IX64\DEBUG\MOC /IX64\DEBUG\UIC /Zi /nologo /W1 /WX- /diagnostics:column /Od /D _WINDOWS /D UNICODE /D _UNICODE /D WIN32 /D _ENABLE_EXTENDED_ALIGNED_STORAGE /D WIN64 /D QT_WIDGETS_LIB /D QT_GUI_LIB /D QT_CORE_LIB /Gm- /EHsc /MDd /GS /fp:precise /Zc:wchar_t /Zc:forScope /Zc:inline /Fo"X64\DEBUG\\" /Fd"X64\DEBUG\VC142.PDB" /external:W1 /Gd /TP /FC -Zc:rvalueCast -Zc:strictStrings -Zc:throwingNew -Zc:referenceBinding -Zc:__cplusplus D:\QTPROJEKTY\RENTAL\WYPOZYCZALNIAPAJEK\MAIN.CPP
^D:\QTPROJEKTY\RENTAL\WYPOZYCZALNIAPAJEK\X64\DEBUG\RCC\QRC_MAINWINDOW.CPP
/c /IX64\DEBUG\UIC /IX64\DEBUG\MOC /ID:\QTPROJEKTY\RENTAL\WYPOZYCZALNIAPAJEK\ /I"D:\QTPROJEKTY\WYPOZYCZALNIAPAJEK ? KOPIA\WYPOZYCZALNIAPAJEK\X64\DEBUG\QMAKE\TEMP" /ID:\QT\QT5.14.2\5.14.2\MSVC2017_64\INCLUDE /ID:\QT\QT5.14.2\5.14.2\MSVC2017_64\INCLUDE\QTWIDGETS /ID:\QT\QT5.14.2\5.14.2\MSVC2017_64\INCLUDE\QTGUI /ID:\QT\QT5.14.2\5.14.2\MSVC2017_64\INCLUDE\QTANGLE /ID:\QT\QT5.14.2\5.14.2\MSVC2017_64\INCLUDE\QTCORE /I"D:\QTPROJEKTY\WYPOZYCZALNIAPAJEK ? KOPIA\WYPOZYCZALNIAPAJEK\X64\DEBUG\QMAKE\TEMP" /I/INCLUDE /I"D:\QT\QT5.14.2\5.14.2\MSVC2017_64\MKSPECS\WIN32-MSVC" /IX64\DEBUG\MOC /IX64\DEBUG\UIC /Zi /nologo /W1 /WX- /diagnostics:column /Od /D _WINDOWS /D UNICODE /D _UNICODE /D WIN32 /D _ENABLE_EXTENDED_ALIGNED_STORAGE /D WIN64 /D QT_WIDGETS_LIB /D QT_GUI_LIB /D QT_CORE_LIB /Gm- /EHsc /MDd /GS /fp:precise /Zc:wchar_t /Zc:forScope /Zc:inline /Fo"X64\DEBUG\\" /Fd"X64\DEBUG\VC142.PDB" /external:W1 /Gd /TP /FC -Zc:rvalueCast -Zc:strictStrings -Zc:throwingNew -Zc:referenceBinding -Zc:__cplusplus D:\QTPROJEKTY\RENTAL\WYPOZYCZALNIAPAJEK\X64\DEBUG\RCC\QRC_MAINWINDOW.CPP
^D:\QTPROJEKTY\RENTAL\WYPOZYCZALNIAPAJEK\X64\DEBUG\MOC\MOC_NAVIGATION_GUI.CPP
/c /IX64\DEBUG\UIC /IX64\DEBUG\MOC /ID:\QTPROJEKTY\RENTAL\WYPOZYCZALNIAPAJEK\ /I"D:\QTPROJEKTY\WYPOZYCZALNIAPAJEK ? KOPIA\WYPOZYCZALNIAPAJEK\X64\DEBUG\QMAKE\TEMP" /ID:\QT\QT5.14.2\5.14.2\MSVC2017_64\INCLUDE /ID:\QT\QT5.14.2\5.14.2\MSVC2017_64\INCLUDE\QTWIDGETS /ID:\QT\QT5.14.2\5.14.2\MSVC2017_64\INCLUDE\QTGUI /ID:\QT\QT5.14.2\5.14.2\MSVC2017_64\INCLUDE\QTANGLE /ID:\QT\QT5.14.2\5.14.2\MSVC2017_64\INCLUDE\QTCORE /I"D:\QTPROJEKTY\WYPOZYCZALNIAPAJEK ? KOPIA\WYPOZYCZALNIAPAJEK\X64\DEBUG\QMAKE\TEMP" /I/INCLUDE /I"D:\QT\QT5.14.2\5.14.2\MSVC2017_64\MKSPECS\WIN32-MSVC" /IX64\DEBUG\MOC /IX64\DEBUG\UIC /Zi /nologo /W1 /WX- /diagnostics:column /Od /D _WINDOWS /D UNICODE /D _UNICODE /D WIN32 /D _ENABLE_EXTENDED_ALIGNED_STORAGE /D WIN64 /D QT_WIDGETS_LIB /D QT_GUI_LIB /D QT_CORE_LIB /Gm- /EHsc /MDd /GS /fp:precise /Zc:wchar_t /Zc:forScope /Zc:inline /Fo"X64\DEBUG\\" /Fd"X64\DEBUG\VC142.PDB" /external:W1 /Gd /TP /FC -Zc:rvalueCast -Zc:strictStrings -Zc:throwingNew -Zc:referenceBinding -Zc:__cplusplus D:\QTPROJEKTY\RENTAL\WYPOZYCZALNIAPAJEK\X64\DEBUG\MOC\MOC_NAVIGATION_GUI.CPP
^D:\QTPROJEKTY\RENTAL\WYPOZYCZALNIAPAJEK\X64\DEBUG\MOC\MOC_PERSON_GAME_GUI.CPP
/c /IX64\DEBUG\UIC /IX64\DEBUG\MOC /ID:\QTPROJEKTY\RENTAL\WYPOZYCZALNIAPAJEK\ /I"D:\QTPROJEKTY\WYPOZYCZALNIAPAJEK ? KOPIA\WYPOZYCZALNIAPAJEK\X64\DEBUG\QMAKE\TEMP" /ID:\QT\QT5.14.2\5.14.2\MSVC2017_64\INCLUDE /ID:\QT\QT5.14.2\5.14.2\MSVC2017_64\INCLUDE\QTWIDGETS /ID:\QT\QT5.14.2\5.14.2\MSVC2017_64\INCLUDE\QTGUI /ID:\QT\QT5.14.2\5.14.2\MSVC2017_64\INCLUDE\QTANGLE /ID:\QT\QT5.14.2\5.14.2\MSVC2017_64\INCLUDE\QTCORE /I"D:\QTPROJEKTY\WYPOZYCZALNIAPAJEK ? KOPIA\WYPOZYCZALNIAPAJEK\X64\DEBUG\QMAKE\TEMP" /I/INCLUDE /I"D:\QT\QT5.14.2\5.14.2\MSVC2017_64\MKSPECS\WIN32-MSVC" /IX64\DEBUG\MOC /IX64\DEBUG\UIC /Zi /nologo /W1 /WX- /diagnostics:column /Od /D _WINDOWS /D UNICODE /D _UNICODE /D WIN32 /D _ENABLE_EXTENDED_ALIGNED_STORAGE /D WIN64 /D QT_WIDGETS_LIB /D QT_GUI_LIB /D QT_CORE_LIB /Gm- /EHsc /MDd /GS /fp:precise /Zc:wchar_t /Zc:forScope /Zc:inline /Fo"X64\DEBUG\\" /Fd"X64\DEBUG\VC142.PDB" /external:W1 /Gd /TP /FC -Zc:rvalueCast -Zc:strictStrings -Zc:throwingNew -Zc:referenceBinding -Zc:__cplusplus D:\QTPROJEKTY\RENTAL\WYPOZYCZALNIAPAJEK\X64\DEBUG\MOC\MOC_PERSON_GAME_GUI.CPP
^D:\QTPROJEKTY\RENTAL\WYPOZYCZALNIAPAJEK\X64\DEBUG\MOC\MOC_PERSON_INFO_GUI.CPP
/c /IX64\DEBUG\UIC /IX64\DEBUG\MOC /ID:\QTPROJEKTY\RENTAL\WYPOZYCZALNIAPAJEK\ /I"D:\QTPROJEKTY\WYPOZYCZALNIAPAJEK ? KOPIA\WYPOZYCZALNIAPAJEK\X64\DEBUG\QMAKE\TEMP" /ID:\QT\QT5.14.2\5.14.2\MSVC2017_64\INCLUDE /ID:\QT\QT5.14.2\5.14.2\MSVC2017_64\INCLUDE\QTWIDGETS /ID:\QT\QT5.14.2\5.14.2\MSVC2017_64\INCLUDE\QTGUI /ID:\QT\QT5.14.2\5.14.2\MSVC2017_64\INCLUDE\QTANGLE /ID:\QT\QT5.14.2\5.14.2\MSVC2017_64\INCLUDE\QTCORE /I"D:\QTPROJEKTY\WYPOZYCZALNIAPAJEK ? KOPIA\WYPOZYCZALNIAPAJEK\X64\DEBUG\QMAKE\TEMP" /I/INCLUDE /I"D:\QT\QT5.14.2\5.14.2\MSVC2017_64\MKSPECS\WIN32-MSVC" /IX64\DEBUG\MOC /IX64\DEBUG\UIC /Zi /nologo /W1 /WX- /diagnostics:column /Od /D _WINDOWS /D UNICODE /D _UNICODE /D WIN32 /D _ENABLE_EXTENDED_ALIGNED_STORAGE /D WIN64 /D QT_WIDGETS_LIB /D QT_GUI_LIB /D QT_CORE_LIB /Gm- /EHsc /MDd /GS /fp:precise /Zc:wchar_t /Zc:forScope /Zc:inline /Fo"X64\DEBUG\\" /Fd"X64\DEBUG\VC142.PDB" /external:W1 /Gd /TP /FC -Zc:rvalueCast -Zc:strictStrings -Zc:throwingNew -Zc:referenceBinding -Zc:__cplusplus D:\QTPROJEKTY\RENTAL\WYPOZYCZALNIAPAJEK\X64\DEBUG\MOC\MOC_PERSON_INFO_GUI.CPP
^D:\QTPROJEKTY\RENTAL\WYPOZYCZALNIAPAJEK\X64\DEBUG\MOC\MOC_MAINWINDOW.CPP
/c /IX64\DEBUG\UIC /IX64\DEBUG\MOC /ID:\QTPROJEKTY\RENTAL\WYPOZYCZALNIAPAJEK\ /I"D:\QTPROJEKTY\WYPOZYCZALNIAPAJEK ? KOPIA\WYPOZYCZALNIAPAJEK\X64\DEBUG\QMAKE\TEMP" /ID:\QT\QT5.14.2\5.14.2\MSVC2017_64\INCLUDE /ID:\QT\QT5.14.2\5.14.2\MSVC2017_64\INCLUDE\QTWIDGETS /ID:\QT\QT5.14.2\5.14.2\MSVC2017_64\INCLUDE\QTGUI /ID:\QT\QT5.14.2\5.14.2\MSVC2017_64\INCLUDE\QTANGLE /ID:\QT\QT5.14.2\5.14.2\MSVC2017_64\INCLUDE\QTCORE /I"D:\QTPROJEKTY\WYPOZYCZALNIAPAJEK ? KOPIA\WYPOZYCZALNIAPAJEK\X64\DEBUG\QMAKE\TEMP" /I/INCLUDE /I"D:\QT\QT5.14.2\5.14.2\MSVC2017_64\MKSPECS\WIN32-MSVC" /IX64\DEBUG\MOC /IX64\DEBUG\UIC /Zi /nologo /W1 /WX- /diagnostics:column /Od /D _WINDOWS /D UNICODE /D _UNICODE /D WIN32 /D _ENABLE_EXTENDED_ALIGNED_STORAGE /D WIN64 /D QT_WIDGETS_LIB /D QT_GUI_LIB /D QT_CORE_LIB /Gm- /EHsc /MDd /GS /fp:precise /Zc:wchar_t /Zc:forScope /Zc:inline /Fo"X64\DEBUG\\" /Fd"X64\DEBUG\VC142.PDB" /external:W1 /Gd /TP /FC -Zc:rvalueCast -Zc:strictStrings -Zc:throwingNew -Zc:referenceBinding -Zc:__cplusplus D:\QTPROJEKTY\RENTAL\WYPOZYCZALNIAPAJEK\X64\DEBUG\MOC\MOC_MAINWINDOW.CPP
